127.0.0.1 - - [19/Jan/2015:09:59:04 +0100] "GET / HTTP/1.1" 404 951
0:0:0:0:0:0:0:1 - - [19/Jan/2015:09:59:06 +0100] "GET /Website/listTop5.jsp HTTP/1.1" 200 7086
0:0:0:0:0:0:0:1 - - [19/Jan/2015:09:59:06 +0100] "GET /Website/res/js/jquery-1.11.1.min.js HTTP/1.1" 200 95786
0:0:0:0:0:0:0:1 - - [19/Jan/2015:09:59:06 +0100] "GET /Website/res/js/bootstrap.min.js HTTP/1.1" 200 34653
0:0:0:0:0:0:0:1 - - [19/Jan/2015:09:59:06 +0100] "GET /Website/res/css/jquery-ui.min.css HTTP/1.1" 200 30163
0:0:0:0:0:0:0:1 - - [19/Jan/2015:09:59:06 +0100] "GET /Website/res/css/bootstrap.min.css HTTP/1.1" 200 114011
0:0:0:0:0:0:0:1 - - [19/Jan/2015:09:59:06 +0100] "GET /Website/res/css/ourCss.css HTTP/1.1" 304 -
0:0:0:0:0:0:0:1 - - [19/Jan/2015:09:59:06 +0100] "GET /Website/res/js/jquery-ui.min.js HTTP/1.1" 200 239564
0:0:0:0:0:0:0:1 - - [19/Jan/2015:09:59:06 +0100] "GET /Website/res/img/newyork.jpg HTTP/1.1" 200 353824
0:0:0:0:0:0:0:1 - - [19/Jan/2015:09:59:06 +0100] "GET /Website/res/img/paris.jpg HTTP/1.1" 200 767205
0:0:0:0:0:0:0:1 - - [19/Jan/2015:09:59:06 +0100] "GET /Website/res/fonts/glyphicons-halflings-regular.woff HTTP/1.1" 200 23320
0:0:0:0:0:0:0:1 - - [19/Jan/2015:09:59:08 +0100] "GET /Website/index.jsp HTTP/1.1" 200 4585
0:0:0:0:0:0:0:1 - - [19/Jan/2015:09:59:08 +0100] "GET /Website/res/img/collage.jpg HTTP/1.1" 200 143469
0:0:0:0:0:0:0:1 - - [19/Jan/2015:09:59:11 +0100] "GET /Website/login.jsp HTTP/1.1" 200 5639
0:0:0:0:0:0:0:1 - - [19/Jan/2015:09:59:11 +0100] "GET /Website/res/img/loginIMG.png HTTP/1.1" 200 5941
0:0:0:0:0:0:0:1 - - [19/Jan/2015:09:59:14 +0100] "GET /Website/listTop5.jsp HTTP/1.1" 200 7086
0:0:0:0:0:0:0:1 - - [19/Jan/2015:09:59:15 +0100] "GET /Website/listAlle.jsp HTTP/1.1" 200 11673
0:0:0:0:0:0:0:1 - - [19/Jan/2015:09:59:23 +0100] "GET /Website/listTop5.jsp HTTP/1.1" 200 7086
0:0:0:0:0:0:0:1 - - [19/Jan/2015:09:59:24 +0100] "GET /Website/listAlle.jsp HTTP/1.1" 200 11673
0:0:0:0:0:0:0:1 - - [19/Jan/2015:09:59:29 +0100] "GET /Website/listTop5.jsp HTTP/1.1" 200 7086
0:0:0:0:0:0:0:1 - - [19/Jan/2015:09:59:32 +0100] "GET /Website/listAlle.jsp HTTP/1.1" 200 11673
0:0:0:0:0:0:0:1 - - [19/Jan/2015:09:59:39 +0100] "GET /Website/login.jsp HTTP/1.1" 200 5639
0:0:0:0:0:0:0:1 - - [19/Jan/2015:09:59:40 +0100] "GET /Website/index.jsp HTTP/1.1" 200 4585
0:0:0:0:0:0:0:1 - - [19/Jan/2015:09:59:50 +0100] "GET /Website/login.jsp HTTP/1.1" 200 5639
0:0:0:0:0:0:0:1 - - [19/Jan/2015:09:59:51 +0100] "GET /Website/index.jsp HTTP/1.1" 200 4585
0:0:0:0:0:0:0:1 - - [19/Jan/2015:10:00:27 +0100] "GET /Website/index.jsp HTTP/1.1" 200 4585
0:0:0:0:0:0:0:1 - - [19/Jan/2015:10:00:28 +0100] "GET /Website/login.jsp HTTP/1.1" 200 5639
0:0:0:0:0:0:0:1 - - [19/Jan/2015:10:00:32 +0100] "GET /Website/index.jsp HTTP/1.1" 200 4585
0:0:0:0:0:0:0:1 - - [19/Jan/2015:10:00:33 +0100] "GET /Website/listTop5.jsp HTTP/1.1" 200 7086
0:0:0:0:0:0:0:1 - - [19/Jan/2015:10:00:35 +0100] "GET /Website/listAlle.jsp HTTP/1.1" 200 11673
0:0:0:0:0:0:0:1 - - [19/Jan/2015:10:00:38 +0100] "GET /Website/index.jsp HTTP/1.1" 200 4585
0:0:0:0:0:0:0:1 - - [19/Jan/2015:10:00:41 +0100] "GET /Website/index.jsp HTTP/1.1" 200 4585
0:0:0:0:0:0:0:1 - - [19/Jan/2015:10:01:09 +0100] "GET /Website/index.jsp HTTP/1.1" 200 4585
0:0:0:0:0:0:0:1 - - [19/Jan/2015:10:02:17 +0100] "GET /Website/index.jsp HTTP/1.1" 200 4585
0:0:0:0:0:0:0:1 - - [19/Jan/2015:10:02:18 +0100] "GET /Website/login.jsp HTTP/1.1" 200 5639
0:0:0:0:0:0:0:1 - - [19/Jan/2015:10:02:19 +0100] "GET /Website/listTop5.jsp HTTP/1.1" 200 7086
127.0.0.1 - - [19/Jan/2015:15:24:39 +0100] "GET / HTTP/1.1" 404 951
0:0:0:0:0:0:0:1 - - [19/Jan/2015:15:24:40 +0100] "GET /Website/listTop5.jsp HTTP/1.1" 200 7086
0:0:0:0:0:0:0:1 - - [19/Jan/2015:15:24:40 +0100] "GET /Website/res/js/jquery-1.11.1.min.js HTTP/1.1" 200 95786
0:0:0:0:0:0:0:1 - - [19/Jan/2015:15:24:40 +0100] "GET /Website/res/js/bootstrap.min.js HTTP/1.1" 200 34653
0:0:0:0:0:0:0:1 - - [19/Jan/2015:15:24:40 +0100] "GET /Website/res/css/ourCss.css HTTP/1.1" 200 1560
0:0:0:0:0:0:0:1 - - [19/Jan/2015:15:24:40 +0100] "GET /Website/res/css/jquery-ui.min.css HTTP/1.1" 200 30163
0:0:0:0:0:0:0:1 - - [19/Jan/2015:15:24:40 +0100] "GET /Website/res/css/bootstrap.min.css HTTP/1.1" 200 114011
0:0:0:0:0:0:0:1 - - [19/Jan/2015:15:24:40 +0100] "GET /Website/res/js/jquery-ui.min.js HTTP/1.1" 200 239564
0:0:0:0:0:0:0:1 - - [19/Jan/2015:15:24:40 +0100] "GET /Website/res/img/newyork.jpg HTTP/1.1" 200 353824
0:0:0:0:0:0:0:1 - - [19/Jan/2015:15:24:40 +0100] "GET /Website/res/img/paris.jpg HTTP/1.1" 200 767205
0:0:0:0:0:0:0:1 - - [19/Jan/2015:15:24:40 +0100] "GET /Website/res/fonts/glyphicons-halflings-regular.woff HTTP/1.1" 200 23320
0:0:0:0:0:0:0:1 - - [19/Jan/2015:15:24:42 +0100] "GET /Website/index.jsp HTTP/1.1" 200 4585
0:0:0:0:0:0:0:1 - - [19/Jan/2015:15:24:42 +0100] "GET /Website/res/img/collage.jpg HTTP/1.1" 200 143469
0:0:0:0:0:0:0:1 - - [19/Jan/2015:15:25:00 +0100] "GET /Website/login.jsp HTTP/1.1" 200 5639
0:0:0:0:0:0:0:1 - - [19/Jan/2015:15:25:00 +0100] "GET /Website/res/img/loginIMG.png HTTP/1.1" 200 5941
0:0:0:0:0:0:0:1 - - [19/Jan/2015:15:25:06 +0100] "GET /Website/listTop5.jsp HTTP/1.1" 200 7086
0:0:0:0:0:0:0:1 - - [19/Jan/2015:15:25:08 +0100] "GET /Website/listAlle.jsp HTTP/1.1" 200 11673
0:0:0:0:0:0:0:1 - - [19/Jan/2015:15:25:22 +0100] "GET /Website/login.jsp HTTP/1.1" 200 5639
0:0:0:0:0:0:0:1 - - [19/Jan/2015:15:25:23 +0100] "GET /Website/index.jsp HTTP/1.1" 200 4585
0:0:0:0:0:0:0:1 - - [19/Jan/2015:15:25:41 +0100] "GET /Website/index.jsp HTTP/1.1" 200 4585
0:0:0:0:0:0:0:1 - - [19/Jan/2015:15:26:02 +0100] "GET /Website/login.jsp HTTP/1.1" 200 5639
0:0:0:0:0:0:0:1 - - [19/Jan/2015:15:26:13 +0100] "GET /Website/listTop5.jsp HTTP/1.1" 200 7086
0:0:0:0:0:0:0:1 - - [19/Jan/2015:15:26:16 +0100] "GET /Website/listAlle.jsp HTTP/1.1" 200 11673
0:0:0:0:0:0:0:1 - - [19/Jan/2015:15:26:18 +0100] "GET /Website/listTop5.jsp HTTP/1.1" 200 7086
0:0:0:0:0:0:0:1 - - [19/Jan/2015:15:26:23 +0100] "GET /Website/index.jsp HTTP/1.1" 200 4585
0:0:0:0:0:0:0:1 - - [19/Jan/2015:15:40:12 +0100] "GET /Website/index.jsp HTTP/1.1" 200 4585
0:0:0:0:0:0:0:1 - - [19/Jan/2015:15:40:12 +0100] "GET /Website/res/js/jquery-1.11.1.min.js HTTP/1.1" 200 95786
0:0:0:0:0:0:0:1 - - [19/Jan/2015:15:40:12 +0100] "GET /Website/res/css/ourCss.css HTTP/1.1" 200 1560
0:0:0:0:0:0:0:1 - - [19/Jan/2015:15:40:12 +0100] "GET /Website/res/css/jquery-ui.min.css HTTP/1.1" 200 30163
0:0:0:0:0:0:0:1 - - [19/Jan/2015:15:40:12 +0100] "GET /Website/res/js/bootstrap.min.js HTTP/1.1" 200 34653
0:0:0:0:0:0:0:1 - - [19/Jan/2015:15:40:12 +0100] "GET /Website/res/css/bootstrap.min.css HTTP/1.1" 200 114011
0:0:0:0:0:0:0:1 - - [19/Jan/2015:15:40:12 +0100] "GET /Website/res/js/jquery-ui.min.js HTTP/1.1" 200 239564
0:0:0:0:0:0:0:1 - - [19/Jan/2015:15:40:12 +0100] "GET /Website/res/img/collage.jpg HTTP/1.1" 200 143469
0:0:0:0:0:0:0:1 - - [19/Jan/2015:15:40:12 +0100] "GET /Website/res/fonts/glyphicons-halflings-regular.woff HTTP/1.1" 200 23320
0:0:0:0:0:0:0:1 - - [19/Jan/2015:15:40:32 +0100] "GET /Website/login.jsp HTTP/1.1" 200 5639
0:0:0:0:0:0:0:1 - - [19/Jan/2015:15:40:32 +0100] "GET /Website/res/img/loginIMG.png HTTP/1.1" 200 5941
0:0:0:0:0:0:0:1 - - [19/Jan/2015:15:40:40 +0100] "GET /Website/listTop5.jsp HTTP/1.1" 200 7086
0:0:0:0:0:0:0:1 - - [19/Jan/2015:15:40:40 +0100] "GET /Website/res/img/newyork.jpg HTTP/1.1" 200 353824
0:0:0:0:0:0:0:1 - - [19/Jan/2015:15:40:40 +0100] "GET /Website/res/img/paris.jpg HTTP/1.1" 200 767205
0:0:0:0:0:0:0:1 - - [19/Jan/2015:15:40:42 +0100] "GET /Website/listAlle.jsp HTTP/1.1" 200 11673
0:0:0:0:0:0:0:1 - - [19/Jan/2015:15:40:48 +0100] "GET /Website/index.jsp HTTP/1.1" 200 4585
0:0:0:0:0:0:0:1 - - [19/Jan/2015:15:45:45 +0100] "GET /Website/index.jsp HTTP/1.1" 200 4585
0:0:0:0:0:0:0:1 - - [19/Jan/2015:15:45:45 +0100] "GET /Website/res/js/jquery-1.11.1.min.js HTTP/1.1" 304 -
0:0:0:0:0:0:0:1 - - [19/Jan/2015:15:45:45 +0100] "GET /Website/res/js/bootstrap.min.js HTTP/1.1" 304 -
0:0:0:0:0:0:0:1 - - [19/Jan/2015:15:45:45 +0100] "GET /Website/res/css/ourCss.css HTTP/1.1" 304 -
0:0:0:0:0:0:0:1 - - [19/Jan/2015:15:45:45 +0100] "GET /Website/res/css/bootstrap.min.css HTTP/1.1" 304 -
0:0:0:0:0:0:0:1 - - [19/Jan/2015:15:45:45 +0100] "GET /Website/res/css/jquery-ui.min.css HTTP/1.1" 304 -
0:0:0:0:0:0:0:1 - - [19/Jan/2015:15:45:45 +0100] "GET /Website/res/js/jquery-ui.min.js HTTP/1.1" 304 -
0:0:0:0:0:0:0:1 - - [19/Jan/2015:15:45:45 +0100] "GET /Website/res/img/collage.jpg HTTP/1.1" 404 1005
0:0:0:0:0:0:0:1 - - [19/Jan/2015:15:46:27 +0100] "GET /Website/login.jsp HTTP/1.1" 200 5639
0:0:0:0:0:0:0:1 - - [19/Jan/2015:15:46:28 +0100] "GET /Website/listTop5.jsp HTTP/1.1" 200 7086
0:0:0:0:0:0:0:1 - - [19/Jan/2015:15:48:39 +0100] "GET /Website/listTop5.jsp HTTP/1.1" 200 3499
0:0:0:0:0:0:0:1 - - [19/Jan/2015:15:48:39 +0100] "GET /Website/res/js/jquery-1.11.1.min.js HTTP/1.1" 304 -
0:0:0:0:0:0:0:1 - - [19/Jan/2015:15:48:39 +0100] "GET /Website/res/js/bootstrap.min.js HTTP/1.1" 304 -
0:0:0:0:0:0:0:1 - - [19/Jan/2015:15:48:39 +0100] "GET /Website/res/js/jquery-ui.min.js HTTP/1.1" 304 -
0:0:0:0:0:0:0:1 - - [19/Jan/2015:15:48:39 +0100] "GET /Website/res/css/jquery-ui.min.css HTTP/1.1" 304 -
0:0:0:0:0:0:0:1 - - [19/Jan/2015:15:48:39 +0100] "GET /Website/res/css/ourCss.css HTTP/1.1" 304 -
0:0:0:0:0:0:0:1 - - [19/Jan/2015:15:48:39 +0100] "GET /Website/res/css/bootstrap.min.css HTTP/1.1" 304 -
0:0:0:0:0:0:0:1 - - [19/Jan/2015:15:48:39 +0100] "GET /Website/res/img/paris.jpg HTTP/1.1" 304 -
0:0:0:0:0:0:0:1 - - [19/Jan/2015:15:48:39 +0100] "GET /Website/res/img/newyork.jpg HTTP/1.1" 304 -
0:0:0:0:0:0:0:1 - - [19/Jan/2015:15:48:46 +0100] "GET /Website/listAlle.jsp HTTP/1.1" 200 11673
0:0:0:0:0:0:0:1 - - [19/Jan/2015:15:50:21 +0100] "GET /Website/listAlle.jsp HTTP/1.1" 200 3104
0:0:0:0:0:0:0:1 - - [19/Jan/2015:15:50:21 +0100] "GET /Website/res/js/jquery-1.11.1.min.js HTTP/1.1" 304 -
0:0:0:0:0:0:0:1 - - [19/Jan/2015:15:50:21 +0100] "GET /Website/res/js/bootstrap.min.js HTTP/1.1" 304 -
0:0:0:0:0:0:0:1 - - [19/Jan/2015:15:50:21 +0100] "GET /Website/res/css/bootstrap.min.css HTTP/1.1" 304 -
0:0:0:0:0:0:0:1 - - [19/Jan/2015:15:50:21 +0100] "GET /Website/res/js/jquery-ui.min.js HTTP/1.1" 304 -
0:0:0:0:0:0:0:1 - - [19/Jan/2015:15:50:21 +0100] "GET /Website/res/css/ourCss.css HTTP/1.1" 304 -
0:0:0:0:0:0:0:1 - - [19/Jan/2015:15:50:21 +0100] "GET /Website/res/css/jquery-ui.min.css HTTP/1.1" 304 -
0:0:0:0:0:0:0:1 - - [19/Jan/2015:15:50:24 +0100] "GET /Website/listAlle.jsp HTTP/1.1" 200 3104
0:0:0:0:0:0:0:1 - - [19/Jan/2015:15:50:24 +0100] "GET /Website/res/js/jquery-1.11.1.min.js HTTP/1.1" 304 -
0:0:0:0:0:0:0:1 - - [19/Jan/2015:15:50:24 +0100] "GET /Website/res/js/jquery-ui.min.js HTTP/1.1" 304 -
0:0:0:0:0:0:0:1 - - [19/Jan/2015:15:50:24 +0100] "GET /Website/res/js/bootstrap.min.js HTTP/1.1" 304 -
0:0:0:0:0:0:0:1 - - [19/Jan/2015:15:50:24 +0100] "GET /Website/res/css/bootstrap.min.css HTTP/1.1" 304 -
0:0:0:0:0:0:0:1 - - [19/Jan/2015:15:50:24 +0100] "GET /Website/res/css/jquery-ui.min.css HTTP/1.1" 304 -
0:0:0:0:0:0:0:1 - - [19/Jan/2015:15:50:24 +0100] "GET /Website/res/css/ourCss.css HTTP/1.1" 304 -
0:0:0:0:0:0:0:1 - - [19/Jan/2015:15:50:24 +0100] "GET /Website/listTop5.jsp HTTP/1.1" 200 3466
0:0:0:0:0:0:0:1 - - [19/Jan/2015:15:50:25 +0100] "GET /Website/listAlle.jsp HTTP/1.1" 200 3104
0:0:0:0:0:0:0:1 - - [19/Jan/2015:15:50:32 +0100] "GET /Website/listAlle.jsp HTTP/1.1" 200 3098
0:0:0:0:0:0:0:1 - - [19/Jan/2015:15:50:32 +0100] "GET /Website/res/js/jquery-1.11.1.min.js HTTP/1.1" 304 -
0:0:0:0:0:0:0:1 - - [19/Jan/2015:15:50:32 +0100] "GET /Website/res/js/jquery-ui.min.js HTTP/1.1" 304 -
0:0:0:0:0:0:0:1 - - [19/Jan/2015:15:50:32 +0100] "GET /Website/res/js/bootstrap.min.js HTTP/1.1" 304 -
0:0:0:0:0:0:0:1 - - [19/Jan/2015:15:50:32 +0100] "GET /Website/res/css/jquery-ui.min.css HTTP/1.1" 304 -
0:0:0:0:0:0:0:1 - - [19/Jan/2015:15:50:32 +0100] "GET /Website/res/css/bootstrap.min.css HTTP/1.1" 304 -
0:0:0:0:0:0:0:1 - - [19/Jan/2015:15:50:32 +0100] "GET /Website/res/css/ourCss.css HTTP/1.1" 304 -
0:0:0:0:0:0:0:1 - - [19/Jan/2015:15:50:32 +0100] "GET /Website/listAlle.jsp HTTP/1.1" 200 3098
0:0:0:0:0:0:0:1 - - [19/Jan/2015:15:50:32 +0100] "GET /Website/res/js/jquery-1.11.1.min.js HTTP/1.1" 304 -
0:0:0:0:0:0:0:1 - - [19/Jan/2015:15:50:32 +0100] "GET /Website/res/js/jquery-ui.min.js HTTP/1.1" 304 -
0:0:0:0:0:0:0:1 - - [19/Jan/2015:15:50:32 +0100] "GET /Website/res/js/bootstrap.min.js HTTP/1.1" 304 -
0:0:0:0:0:0:0:1 - - [19/Jan/2015:15:50:32 +0100] "GET /Website/res/css/bootstrap.min.css HTTP/1.1" 304 -
0:0:0:0:0:0:0:1 - - [19/Jan/2015:15:50:32 +0100] "GET /Website/res/css/jquery-ui.min.css HTTP/1.1" 304 -
0:0:0:0:0:0:0:1 - - [19/Jan/2015:15:50:32 +0100] "GET /Website/res/css/ourCss.css HTTP/1.1" 304 -
0:0:0:0:0:0:0:1 - - [19/Jan/2015:15:50:33 +0100] "GET /Website/listTop5.jsp HTTP/1.1" 200 3466
0:0:0:0:0:0:0:1 - - [19/Jan/2015:15:50:34 +0100] "GET /Website/listAlle.jsp HTTP/1.1" 200 3098
0:0:0:0:0:0:0:1 - - [19/Jan/2015:15:51:35 +0100] "GET /Website/listAlle.jsp HTTP/1.1" 200 3112
0:0:0:0:0:0:0:1 - - [19/Jan/2015:15:51:35 +0100] "GET /Website/res/js/jquery-1.11.1.min.js HTTP/1.1" 304 -
0:0:0:0:0:0:0:1 - - [19/Jan/2015:15:51:35 +0100] "GET /Website/res/js/bootstrap.min.js HTTP/1.1" 304 -
0:0:0:0:0:0:0:1 - - [19/Jan/2015:15:51:35 +0100] "GET /Website/res/css/ourCss.css HTTP/1.1" 304 -
0:0:0:0:0:0:0:1 - - [19/Jan/2015:15:51:35 +0100] "GET /Website/res/js/jquery-ui.min.js HTTP/1.1" 304 -
0:0:0:0:0:0:0:1 - - [19/Jan/2015:15:51:35 +0100] "GET /Website/res/css/bootstrap.min.css HTTP/1.1" 304 -
0:0:0:0:0:0:0:1 - - [19/Jan/2015:15:51:35 +0100] "GET /Website/res/css/jquery-ui.min.css HTTP/1.1" 304 -
0:0:0:0:0:0:0:1 - - [19/Jan/2015:15:51:36 +0100] "GET /Website/listAlle.jsp HTTP/1.1" 200 3112
0:0:0:0:0:0:0:1 - - [19/Jan/2015:15:51:36 +0100] "GET /Website/res/js/jquery-1.11.1.min.js HTTP/1.1" 304 -
0:0:0:0:0:0:0:1 - - [19/Jan/2015:15:51:36 +0100] "GET /Website/res/js/jquery-ui.min.js HTTP/1.1" 304 -
0:0:0:0:0:0:0:1 - - [19/Jan/2015:15:51:36 +0100] "GET /Website/res/js/bootstrap.min.js HTTP/1.1" 304 -
0:0:0:0:0:0:0:1 - - [19/Jan/2015:15:51:36 +0100] "GET /Website/res/css/bootstrap.min.css HTTP/1.1" 304 -
0:0:0:0:0:0:0:1 - - [19/Jan/2015:15:51:36 +0100] "GET /Website/res/css/jquery-ui.min.css HTTP/1.1" 304 -
0:0:0:0:0:0:0:1 - - [19/Jan/2015:15:51:36 +0100] "GET /Website/res/css/ourCss.css HTTP/1.1" 304 -
0:0:0:0:0:0:0:1 - - [19/Jan/2015:15:52:26 +0100] "GET /Website/listAlle.jsp HTTP/1.1" 200 3989
0:0:0:0:0:0:0:1 - - [19/Jan/2015:15:52:26 +0100] "GET /Website/res/js/jquery-1.11.1.min.js HTTP/1.1" 304 -
0:0:0:0:0:0:0:1 - - [19/Jan/2015:15:52:26 +0100] "GET /Website/res/js/jquery-ui.min.js HTTP/1.1" 304 -
0:0:0:0:0:0:0:1 - - [19/Jan/2015:15:52:26 +0100] "GET /Website/res/css/jquery-ui.min.css HTTP/1.1" 304 -
0:0:0:0:0:0:0:1 - - [19/Jan/2015:15:52:26 +0100] "GET /Website/res/js/bootstrap.min.js HTTP/1.1" 304 -
0:0:0:0:0:0:0:1 - - [19/Jan/2015:15:52:26 +0100] "GET /Website/res/css/bootstrap.min.css HTTP/1.1" 304 -
0:0:0:0:0:0:0:1 - - [19/Jan/2015:15:52:26 +0100] "GET /Website/res/css/ourCss.css HTTP/1.1" 304 -
0:0:0:0:0:0:0:1 - - [19/Jan/2015:15:52:26 +0100] "GET /Website/res/img/paris.jpg HTTP/1.1" 304 -
0:0:0:0:0:0:0:1 - - [19/Jan/2015:15:52:26 +0100] "GET /Website/res/img/newyork.jpg HTTP/1.1" 304 -
0:0:0:0:0:0:0:1 - - [19/Jan/2015:15:52:31 +0100] "GET /Website/listTop5.jsp HTTP/1.1" 200 3466
0:0:0:0:0:0:0:1 - - [19/Jan/2015:15:52:33 +0100] "GET /Website/listAlle.jsp HTTP/1.1" 200 3989
0:0:0:0:0:0:0:1 - - [19/Jan/2015:15:52:34 +0100] "GET /Website/listTop5.jsp HTTP/1.1" 200 3466
0:0:0:0:0:0:0:1 - - [19/Jan/2015:15:52:34 +0100] "GET /Website/login.jsp HTTP/1.1" 200 5639
0:0:0:0:0:0:0:1 - - [19/Jan/2015:15:52:37 +0100] "GET /Website/index.jsp HTTP/1.1" 200 4585
0:0:0:0:0:0:0:1 - - [19/Jan/2015:15:52:37 +0100] "GET /Website/res/img/collage.jpg HTTP/1.1" 404 1005
0:0:0:0:0:0:0:1 - - [19/Jan/2015:15:55:37 +0100] "GET /Website/index.jsp HTTP/1.1" 200 4585
0:0:0:0:0:0:0:1 - - [19/Jan/2015:15:55:37 +0100] "GET /Website/res/js/jquery-1.11.1.min.js HTTP/1.1" 304 -
0:0:0:0:0:0:0:1 - - [19/Jan/2015:15:55:37 +0100] "GET /Website/res/js/jquery-ui.min.js HTTP/1.1" 304 -
0:0:0:0:0:0:0:1 - - [19/Jan/2015:15:55:37 +0100] "GET /Website/res/css/jquery-ui.min.css HTTP/1.1" 304 -
0:0:0:0:0:0:0:1 - - [19/Jan/2015:15:55:37 +0100] "GET /Website/res/css/bootstrap.min.css HTTP/1.1" 304 -
0:0:0:0:0:0:0:1 - - [19/Jan/2015:15:55:37 +0100] "GET /Website/res/css/ourCss.css HTTP/1.1" 304 -
0:0:0:0:0:0:0:1 - - [19/Jan/2015:15:55:37 +0100] "GET /Website/res/js/bootstrap.min.js HTTP/1.1" 304 -
0:0:0:0:0:0:0:1 - - [19/Jan/2015:15:55:37 +0100] "GET /Website/res/img/collage.jpg HTTP/1.1" 200 3565202
0:0:0:0:0:0:0:1 - - [19/Jan/2015:15:57:34 +0100] "GET /Website/login.jsp HTTP/1.1" 200 5639
0:0:0:0:0:0:0:1 - - [19/Jan/2015:15:57:54 +0100] "GET /Website/listTop5.jsp HTTP/1.1" 200 3466
0:0:0:0:0:0:0:1 - - [19/Jan/2015:15:58:43 +0100] "GET /Website/listAlle.jsp HTTP/1.1" 200 3989
0:0:0:0:0:0:0:1 - - [19/Jan/2015:16:01:53 +0100] "GET /Website/listAlle.jsp HTTP/1.1" 200 4118
0:0:0:0:0:0:0:1 - - [19/Jan/2015:16:01:53 +0100] "GET /Website/res/js/jquery-1.11.1.min.js HTTP/1.1" 304 -
0:0:0:0:0:0:0:1 - - [19/Jan/2015:16:01:53 +0100] "GET /Website/res/js/bootstrap.min.js HTTP/1.1" 304 -
0:0:0:0:0:0:0:1 - - [19/Jan/2015:16:01:53 +0100] "GET /Website/res/css/bootstrap.min.css HTTP/1.1" 304 -
0:0:0:0:0:0:0:1 - - [19/Jan/2015:16:01:53 +0100] "GET /Website/res/js/jquery-ui.min.js HTTP/1.1" 304 -
0:0:0:0:0:0:0:1 - - [19/Jan/2015:16:01:53 +0100] "GET /Website/res/css/ourCss.css HTTP/1.1" 304 -
0:0:0:0:0:0:0:1 - - [19/Jan/2015:16:01:53 +0100] "GET /Website/res/css/jquery-ui.min.css HTTP/1.1" 304 -
0:0:0:0:0:0:0:1 - - [19/Jan/2015:16:01:53 +0100] "GET /Website/res/img/newyork.jpg HTTP/1.1" 304 -
0:0:0:0:0:0:0:1 - - [19/Jan/2015:16:01:53 +0100] "GET /Website/res/img/paris.jpg HTTP/1.1" 304 -
0:0:0:0:0:0:0:1 - - [19/Jan/2015:16:01:58 +0100] "GET /Website/listTop5.jsp HTTP/1.1" 200 3466
0:0:0:0:0:0:0:1 - - [19/Jan/2015:16:01:59 +0100] "GET /Website/listAlle.jsp HTTP/1.1" 200 4118
0:0:0:0:0:0:0:1 - - [19/Jan/2015:16:02:21 +0100] "GET /Website/listAlle.jsp HTTP/1.1" 200 4137
0:0:0:0:0:0:0:1 - - [19/Jan/2015:16:02:21 +0100] "GET /Website/res/js/jquery-1.11.1.min.js HTTP/1.1" 304 -
0:0:0:0:0:0:0:1 - - [19/Jan/2015:16:02:21 +0100] "GET /Website/res/js/jquery-ui.min.js HTTP/1.1" 304 -
0:0:0:0:0:0:0:1 - - [19/Jan/2015:16:02:21 +0100] "GET /Website/res/css/bootstrap.min.css HTTP/1.1" 304 -
0:0:0:0:0:0:0:1 - - [19/Jan/2015:16:02:21 +0100] "GET /Website/res/js/bootstrap.min.js HTTP/1.1" 304 -
0:0:0:0:0:0:0:1 - - [19/Jan/2015:16:02:21 +0100] "GET /Website/res/css/jquery-ui.min.css HTTP/1.1" 304 -
0:0:0:0:0:0:0:1 - - [19/Jan/2015:16:02:21 +0100] "GET /Website/res/css/ourCss.css HTTP/1.1" 304 -
0:0:0:0:0:0:0:1 - - [19/Jan/2015:16:02:21 +0100] "GET /Website/res/img/newyork.jpg HTTP/1.1" 304 -
0:0:0:0:0:0:0:1 - - [19/Jan/2015:16:02:21 +0100] "GET /Website/res/img/paris.jpg HTTP/1.1" 304 -
0:0:0:0:0:0:0:1 - - [19/Jan/2015:16:02:24 +0100] "GET /Website/listAlle.jsp HTTP/1.1" 200 4137
0:0:0:0:0:0:0:1 - - [19/Jan/2015:16:02:25 +0100] "GET /Website/listTop5.jsp HTTP/1.1" 200 3466
0:0:0:0:0:0:0:1 - - [19/Jan/2015:16:02:26 +0100] "GET /Website/listAlle.jsp HTTP/1.1" 200 4137
0:0:0:0:0:0:0:1 - - [19/Jan/2015:16:02:52 +0100] "GET /Website/listAlle.jsp HTTP/1.1" 200 4162
0:0:0:0:0:0:0:1 - - [19/Jan/2015:16:02:52 +0100] "GET /Website/res/js/jquery-1.11.1.min.js HTTP/1.1" 304 -
0:0:0:0:0:0:0:1 - - [19/Jan/2015:16:02:52 +0100] "GET /Website/res/js/jquery-ui.min.js HTTP/1.1" 304 -
0:0:0:0:0:0:0:1 - - [19/Jan/2015:16:02:52 +0100] "GET /Website/res/js/bootstrap.min.js HTTP/1.1" 304 -
0:0:0:0:0:0:0:1 - - [19/Jan/2015:16:02:52 +0100] "GET /Website/res/css/bootstrap.min.css HTTP/1.1" 304 -
0:0:0:0:0:0:0:1 - - [19/Jan/2015:16:02:52 +0100] "GET /Website/res/css/ourCss.css HTTP/1.1" 304 -
0:0:0:0:0:0:0:1 - - [19/Jan/2015:16:02:52 +0100] "GET /Website/res/css/jquery-ui.min.css HTTP/1.1" 304 -
0:0:0:0:0:0:0:1 - - [19/Jan/2015:16:02:52 +0100] "GET /Website/res/img/paris.jpg HTTP/1.1" 304 -
0:0:0:0:0:0:0:1 - - [19/Jan/2015:16:02:52 +0100] "GET /Website/res/img/newyork.jpg HTTP/1.1" 304 -
0:0:0:0:0:0:0:1 - - [19/Jan/2015:16:03:12 +0100] "GET /Website/listAlle.jsp HTTP/1.1" 200 3882
0:0:0:0:0:0:0:1 - - [19/Jan/2015:16:03:12 +0100] "GET /Website/res/js/jquery-1.11.1.min.js HTTP/1.1" 304 -
0:0:0:0:0:0:0:1 - - [19/Jan/2015:16:03:12 +0100] "GET /Website/res/js/jquery-ui.min.js HTTP/1.1" 304 -
0:0:0:0:0:0:0:1 - - [19/Jan/2015:16:03:12 +0100] "GET /Website/res/js/bootstrap.min.js HTTP/1.1" 304 -
0:0:0:0:0:0:0:1 - - [19/Jan/2015:16:03:12 +0100] "GET /Website/res/css/jquery-ui.min.css HTTP/1.1" 304 -
0:0:0:0:0:0:0:1 - - [19/Jan/2015:16:03:12 +0100] "GET /Website/res/css/bootstrap.min.css HTTP/1.1" 304 -
0:0:0:0:0:0:0:1 - - [19/Jan/2015:16:03:12 +0100] "GET /Website/res/css/ourCss.css HTTP/1.1" 304 -
0:0:0:0:0:0:0:1 - - [19/Jan/2015:16:03:12 +0100] "GET /Website/res/img/newyork.jpg HTTP/1.1" 304 -
0:0:0:0:0:0:0:1 - - [19/Jan/2015:16:03:12 +0100] "GET /Website/res/img/paris.jpg HTTP/1.1" 304 -
0:0:0:0:0:0:0:1 - - [19/Jan/2015:16:04:18 +0100] "GET /Website/listAlle.jsp HTTP/1.1" 200 3882
0:0:0:0:0:0:0:1 - - [19/Jan/2015:16:04:18 +0100] "GET /Website/res/js/jquery-1.11.1.min.js HTTP/1.1" 304 -
0:0:0:0:0:0:0:1 - - [19/Jan/2015:16:04:18 +0100] "GET /Website/res/js/jquery-ui.min.js HTTP/1.1" 304 -
0:0:0:0:0:0:0:1 - - [19/Jan/2015:16:04:18 +0100] "GET /Website/res/css/ourCss.css HTTP/1.1" 304 -
0:0:0:0:0:0:0:1 - - [19/Jan/2015:16:04:18 +0100] "GET /Website/res/js/bootstrap.min.js HTTP/1.1" 304 -
0:0:0:0:0:0:0:1 - - [19/Jan/2015:16:04:18 +0100] "GET /Website/res/css/jquery-ui.min.css HTTP/1.1" 304 -
0:0:0:0:0:0:0:1 - - [19/Jan/2015:16:04:18 +0100] "GET /Website/res/css/bootstrap.min.css HTTP/1.1" 304 -
0:0:0:0:0:0:0:1 - - [19/Jan/2015:16:04:18 +0100] "GET /Website/res/img/paris.jpg HTTP/1.1" 304 -
0:0:0:0:0:0:0:1 - - [19/Jan/2015:16:04:18 +0100] "GET /Website/res/img/newyork.jpg HTTP/1.1" 304 -
0:0:0:0:0:0:0:1 - - [19/Jan/2015:16:04:34 +0100] "GET /Website/listAlle.jsp HTTP/1.1" 200 3881
0:0:0:0:0:0:0:1 - - [19/Jan/2015:16:04:34 +0100] "GET /Website/res/js/jquery-1.11.1.min.js HTTP/1.1" 304 -
0:0:0:0:0:0:0:1 - - [19/Jan/2015:16:04:34 +0100] "GET /Website/res/js/jquery-ui.min.js HTTP/1.1" 304 -
0:0:0:0:0:0:0:1 - - [19/Jan/2015:16:04:34 +0100] "GET /Website/res/css/bootstrap.min.css HTTP/1.1" 304 -
0:0:0:0:0:0:0:1 - - [19/Jan/2015:16:04:34 +0100] "GET /Website/res/js/bootstrap.min.js HTTP/1.1" 304 -
0:0:0:0:0:0:0:1 - - [19/Jan/2015:16:04:34 +0100] "GET /Website/res/css/jquery-ui.min.css HTTP/1.1" 304 -
0:0:0:0:0:0:0:1 - - [19/Jan/2015:16:04:34 +0100] "GET /Website/res/css/ourCss.css HTTP/1.1" 304 -
0:0:0:0:0:0:0:1 - - [19/Jan/2015:16:04:34 +0100] "GET /Website/res/img/newyork.jpg HTTP/1.1" 304 -
0:0:0:0:0:0:0:1 - - [19/Jan/2015:16:04:34 +0100] "GET /Website/res/img/paris.jpg HTTP/1.1" 304 -
0:0:0:0:0:0:0:1 - - [19/Jan/2015:16:04:41 +0100] "GET /Website/listTop5.jsp HTTP/1.1" 200 3466
0:0:0:0:0:0:0:1 - - [19/Jan/2015:16:04:42 +0100] "GET /Website/listAlle.jsp HTTP/1.1" 200 3881
0:0:0:0:0:0:0:1 - - [19/Jan/2015:16:04:52 +0100] "GET /Website/listTop5.jsp HTTP/1.1" 200 3466
0:0:0:0:0:0:0:1 - - [19/Jan/2015:16:04:53 +0100] "GET /Website/index.jsp HTTP/1.1" 200 4585
0:0:0:0:0:0:0:1 - - [19/Jan/2015:16:04:53 +0100] "GET /Website/res/img/collage.jpg HTTP/1.1" 304 -
0:0:0:0:0:0:0:1 - - [19/Jan/2015:16:05:52 +0100] "GET /Website/index.jsp HTTP/1.1" 200 4585
0:0:0:0:0:0:0:1 - - [19/Jan/2015:16:05:52 +0100] "GET /Website/res/js/jquery-1.11.1.min.js HTTP/1.1" 304 -
0:0:0:0:0:0:0:1 - - [19/Jan/2015:16:05:52 +0100] "GET /Website/res/css/jquery-ui.min.css HTTP/1.1" 304 -
0:0:0:0:0:0:0:1 - - [19/Jan/2015:16:05:52 +0100] "GET /Website/res/css/ourCss.css HTTP/1.1" 304 -
0:0:0:0:0:0:0:1 - - [19/Jan/2015:16:05:52 +0100] "GET /Website/res/js/jquery-ui.min.js HTTP/1.1" 304 -
0:0:0:0:0:0:0:1 - - [19/Jan/2015:16:05:52 +0100] "GET /Website/res/js/bootstrap.min.js HTTP/1.1" 304 -
0:0:0:0:0:0:0:1 - - [19/Jan/2015:16:05:52 +0100] "GET /Website/res/css/bootstrap.min.css HTTP/1.1" 304 -
0:0:0:0:0:0:0:1 - - [19/Jan/2015:16:05:52 +0100] "GET /Website/res/img/collage.jpg HTTP/1.1" 304 -
0:0:0:0:0:0:0:1 - - [19/Jan/2015:16:06:03 +0100] "GET /Website/login.jsp HTTP/1.1" 200 5639
0:0:0:0:0:0:0:1 - - [19/Jan/2015:16:06:10 +0100] "GET /Website/index.jsp HTTP/1.1" 200 4585
0:0:0:0:0:0:0:1 - - [19/Jan/2015:16:06:24 +0100] "GET /Website/index.jsp HTTP/1.1" 200 4579
0:0:0:0:0:0:0:1 - - [19/Jan/2015:16:06:24 +0100] "GET /Website/res/js/jquery-1.11.1.min.js HTTP/1.1" 304 -
0:0:0:0:0:0:0:1 - - [19/Jan/2015:16:06:24 +0100] "GET /Website/res/css/bootstrap.min.css HTTP/1.1" 304 -
0:0:0:0:0:0:0:1 - - [19/Jan/2015:16:06:24 +0100] "GET /Website/res/js/jquery-ui.min.js HTTP/1.1" 304 -
0:0:0:0:0:0:0:1 - - [19/Jan/2015:16:06:24 +0100] "GET /Website/res/css/jquery-ui.min.css HTTP/1.1" 304 -
0:0:0:0:0:0:0:1 - - [19/Jan/2015:16:06:24 +0100] "GET /Website/res/css/ourCss.css HTTP/1.1" 304 -
0:0:0:0:0:0:0:1 - - [19/Jan/2015:16:06:24 +0100] "GET /Website/res/js/bootstrap.min.js HTTP/1.1" 304 -
0:0:0:0:0:0:0:1 - - [19/Jan/2015:16:06:24 +0100] "GET /Website/res/img/collage.jpg HTTP/1.1" 304 -
0:0:0:0:0:0:0:1 - - [19/Jan/2015:16:06:37 +0100] "GET /Website/index.jsp HTTP/1.1" 200 4576
0:0:0:0:0:0:0:1 - - [19/Jan/2015:16:06:37 +0100] "GET /Website/res/js/jquery-1.11.1.min.js HTTP/1.1" 304 -
0:0:0:0:0:0:0:1 - - [19/Jan/2015:16:06:37 +0100] "GET /Website/res/js/jquery-ui.min.js HTTP/1.1" 304 -
0:0:0:0:0:0:0:1 - - [19/Jan/2015:16:06:37 +0100] "GET /Website/res/js/bootstrap.min.js HTTP/1.1" 304 -
0:0:0:0:0:0:0:1 - - [19/Jan/2015:16:06:37 +0100] "GET /Website/res/css/bootstrap.min.css HTTP/1.1" 304 -
0:0:0:0:0:0:0:1 - - [19/Jan/2015:16:06:37 +0100] "GET /Website/res/css/jquery-ui.min.css HTTP/1.1" 304 -
0:0:0:0:0:0:0:1 - - [19/Jan/2015:16:06:37 +0100] "GET /Website/res/css/ourCss.css HTTP/1.1" 304 -
0:0:0:0:0:0:0:1 - - [19/Jan/2015:16:06:37 +0100] "GET /Website/res/img/collage.jpg HTTP/1.1" 304 -
0:0:0:0:0:0:0:1 - - [19/Jan/2015:16:06:57 +0100] "GET /Website/index.jsp HTTP/1.1" 200 4576
0:0:0:0:0:0:0:1 - - [19/Jan/2015:16:06:57 +0100] "GET /Website/res/js/jquery-1.11.1.min.js HTTP/1.1" 304 -
0:0:0:0:0:0:0:1 - - [19/Jan/2015:16:06:57 +0100] "GET /Website/res/css/ourCss.css HTTP/1.1" 304 -
0:0:0:0:0:0:0:1 - - [19/Jan/2015:16:06:57 +0100] "GET /Website/res/css/bootstrap.min.css HTTP/1.1" 304 -
0:0:0:0:0:0:0:1 - - [19/Jan/2015:16:06:57 +0100] "GET /Website/res/js/jquery-ui.min.js HTTP/1.1" 304 -
0:0:0:0:0:0:0:1 - - [19/Jan/2015:16:06:57 +0100] "GET /Website/res/js/bootstrap.min.js HTTP/1.1" 304 -
0:0:0:0:0:0:0:1 - - [19/Jan/2015:16:06:57 +0100] "GET /Website/res/css/jquery-ui.min.css HTTP/1.1" 304 -
0:0:0:0:0:0:0:1 - - [19/Jan/2015:16:06:57 +0100] "GET /Website/res/img/collage.jpg HTTP/1.1" 304 -
0:0:0:0:0:0:0:1 - - [19/Jan/2015:16:06:58 +0100] "GET /Website/index.jsp HTTP/1.1" 200 4576
0:0:0:0:0:0:0:1 - - [19/Jan/2015:16:06:58 +0100] "GET /Website/res/js/jquery-ui.min.js HTTP/1.1" 304 -
0:0:0:0:0:0:0:1 - - [19/Jan/2015:16:06:58 +0100] "GET /Website/res/js/jquery-1.11.1.min.js HTTP/1.1" 304 -
0:0:0:0:0:0:0:1 - - [19/Jan/2015:16:06:58 +0100] "GET /Website/res/js/bootstrap.min.js HTTP/1.1" 304 -
0:0:0:0:0:0:0:1 - - [19/Jan/2015:16:06:58 +0100] "GET /Website/res/css/bootstrap.min.css HTTP/1.1" 304 -
0:0:0:0:0:0:0:1 - - [19/Jan/2015:16:06:58 +0100] "GET /Website/res/css/jquery-ui.min.css HTTP/1.1" 304 -
0:0:0:0:0:0:0:1 - - [19/Jan/2015:16:06:58 +0100] "GET /Website/res/css/ourCss.css HTTP/1.1" 304 -
0:0:0:0:0:0:0:1 - - [19/Jan/2015:16:06:58 +0100] "GET /Website/res/img/collage.jpg HTTP/1.1" 304 -
0:0:0:0:0:0:0:1 - - [19/Jan/2015:16:07:11 +0100] "GET /Website/index.jsp HTTP/1.1" 200 4573
0:0:0:0:0:0:0:1 - - [19/Jan/2015:16:07:11 +0100] "GET /Website/res/js/jquery-1.11.1.min.js HTTP/1.1" 304 -
0:0:0:0:0:0:0:1 - - [19/Jan/2015:16:07:11 +0100] "GET /Website/res/js/jquery-ui.min.js HTTP/1.1" 304 -
0:0:0:0:0:0:0:1 - - [19/Jan/2015:16:07:11 +0100] "GET /Website/res/js/bootstrap.min.js HTTP/1.1" 304 -
0:0:0:0:0:0:0:1 - - [19/Jan/2015:16:07:11 +0100] "GET /Website/res/css/bootstrap.min.css HTTP/1.1" 304 -
0:0:0:0:0:0:0:1 - - [19/Jan/2015:16:07:11 +0100] "GET /Website/res/css/jquery-ui.min.css HTTP/1.1" 304 -
0:0:0:0:0:0:0:1 - - [19/Jan/2015:16:07:11 +0100] "GET /Website/res/css/ourCss.css HTTP/1.1" 304 -
0:0:0:0:0:0:0:1 - - [19/Jan/2015:16:07:11 +0100] "GET /Website/res/img/collage.jpg HTTP/1.1" 304 -
0:0:0:0:0:0:0:1 - - [19/Jan/2015:16:07:29 +0100] "GET /Website/index.jsp HTTP/1.1" 200 4576
0:0:0:0:0:0:0:1 - - [19/Jan/2015:16:07:29 +0100] "GET /Website/res/js/jquery-ui.min.js HTTP/1.1" 304 -
0:0:0:0:0:0:0:1 - - [19/Jan/2015:16:07:29 +0100] "GET /Website/res/js/jquery-1.11.1.min.js HTTP/1.1" 304 -
0:0:0:0:0:0:0:1 - - [19/Jan/2015:16:07:29 +0100] "GET /Website/res/js/bootstrap.min.js HTTP/1.1" 304 -
0:0:0:0:0:0:0:1 - - [19/Jan/2015:16:07:29 +0100] "GET /Website/res/css/bootstrap.min.css HTTP/1.1" 304 -
0:0:0:0:0:0:0:1 - - [19/Jan/2015:16:07:29 +0100] "GET /Website/res/css/jquery-ui.min.css HTTP/1.1" 304 -
0:0:0:0:0:0:0:1 - - [19/Jan/2015:16:07:29 +0100] "GET /Website/res/css/ourCss.css HTTP/1.1" 304 -
0:0:0:0:0:0:0:1 - - [19/Jan/2015:16:07:29 +0100] "GET /Website/res/img/collage.jpg HTTP/1.1" 304 -
0:0:0:0:0:0:0:1 - - [19/Jan/2015:16:08:07 +0100] "GET /Website/index.jsp HTTP/1.1" 200 4576
0:0:0:0:0:0:0:1 - - [19/Jan/2015:16:08:07 +0100] "GET /Website/res/js/jquery-1.11.1.min.js HTTP/1.1" 304 -
0:0:0:0:0:0:0:1 - - [19/Jan/2015:16:08:07 +0100] "GET /Website/res/js/jquery-ui.min.js HTTP/1.1" 304 -
0:0:0:0:0:0:0:1 - - [19/Jan/2015:16:08:07 +0100] "GET /Website/res/css/bootstrap.min.css HTTP/1.1" 304 -
0:0:0:0:0:0:0:1 - - [19/Jan/2015:16:08:07 +0100] "GET /Website/res/js/bootstrap.min.js HTTP/1.1" 304 -
0:0:0:0:0:0:0:1 - - [19/Jan/2015:16:08:07 +0100] "GET /Website/res/css/ourCss.css HTTP/1.1" 304 -
0:0:0:0:0:0:0:1 - - [19/Jan/2015:16:08:07 +0100] "GET /Website/res/css/jquery-ui.min.css HTTP/1.1" 304 -
0:0:0:0:0:0:0:1 - - [19/Jan/2015:16:08:07 +0100] "GET /Website/res/img/collage.jpg HTTP/1.1" 304 -
0:0:0:0:0:0:0:1 - - [19/Jan/2015:16:08:43 +0100] "GET /Website/listTop5.jsp HTTP/1.1" 200 3466
0:0:0:0:0:0:0:1 - - [19/Jan/2015:16:08:47 +0100] "GET /Website/listAlle.jsp HTTP/1.1" 200 3881
0:0:0:0:0:0:0:1 - - [19/Jan/2015:16:08:51 +0100] "GET /Website/listTop5.jsp HTTP/1.1" 200 3466
0:0:0:0:0:0:0:1 - - [19/Jan/2015:16:08:52 +0100] "GET /Website/login.jsp HTTP/1.1" 200 5639
0:0:0:0:0:0:0:1 - - [19/Jan/2015:16:08:57 +0100] "GET /Website/index.jsp HTTP/1.1" 200 4576
0:0:0:0:0:0:0:1 - - [19/Jan/2015:16:17:55 +0100] "GET /Website/index.jsp HTTP/1.1" 200 4576
0:0:0:0:0:0:0:1 - - [19/Jan/2015:16:17:55 +0100] "GET /Website/res/js/jquery-1.11.1.min.js HTTP/1.1" 304 -
0:0:0:0:0:0:0:1 - - [19/Jan/2015:16:17:55 +0100] "GET /Website/res/js/bootstrap.min.js HTTP/1.1" 304 -
0:0:0:0:0:0:0:1 - - [19/Jan/2015:16:17:55 +0100] "GET /Website/res/js/jquery-ui.min.js HTTP/1.1" 304 -
0:0:0:0:0:0:0:1 - - [19/Jan/2015:16:17:55 +0100] "GET /Website/res/css/ourCss.css HTTP/1.1" 304 -
0:0:0:0:0:0:0:1 - - [19/Jan/2015:16:17:55 +0100] "GET /Website/res/css/jquery-ui.min.css HTTP/1.1" 304 -
0:0:0:0:0:0:0:1 - - [19/Jan/2015:16:17:55 +0100] "GET /Website/res/css/bootstrap.min.css HTTP/1.1" 304 -
0:0:0:0:0:0:0:1 - - [19/Jan/2015:16:17:55 +0100] "GET /Website/res/img/collage.jpg HTTP/1.1" 304 -
0:0:0:0:0:0:0:1 - - [19/Jan/2015:16:18:12 +0100] "GET /Website/index.jsp HTTP/1.1" 200 4588
0:0:0:0:0:0:0:1 - - [19/Jan/2015:16:18:12 +0100] "GET /Website/res/js/jquery-1.11.1.min.js HTTP/1.1" 304 -
0:0:0:0:0:0:0:1 - - [19/Jan/2015:16:18:12 +0100] "GET /Website/res/js/jquery-ui.min.js HTTP/1.1" 304 -
0:0:0:0:0:0:0:1 - - [19/Jan/2015:16:18:12 +0100] "GET /Website/res/js/bootstrap.min.js HTTP/1.1" 304 -
0:0:0:0:0:0:0:1 - - [19/Jan/2015:16:18:12 +0100] "GET /Website/res/css/bootstrap.min.css HTTP/1.1" 304 -
0:0:0:0:0:0:0:1 - - [19/Jan/2015:16:18:12 +0100] "GET /Website/res/css/jquery-ui.min.css HTTP/1.1" 304 -
0:0:0:0:0:0:0:1 - - [19/Jan/2015:16:18:12 +0100] "GET /Website/res/css/ourCss.css HTTP/1.1" 304 -
0:0:0:0:0:0:0:1 - - [19/Jan/2015:16:18:12 +0100] "GET /Website/res/img/collage.jpg HTTP/1.1" 304 -
0:0:0:0:0:0:0:1 - - [19/Jan/2015:16:18:14 +0100] "GET /Website/kontakt.jsp HTTP/1.1" 200 2102
0:0:0:0:0:0:0:1 - - [19/Jan/2015:16:18:30 +0100] "GET /Website/index.jsp HTTP/1.1" 200 4588
0:0:0:0:0:0:0:1 - - [19/Jan/2015:16:18:34 +0100] "GET /Website/kontakt.jsp HTTP/1.1" 200 2102
0:0:0:0:0:0:0:1 - - [19/Jan/2015:16:18:59 +0100] "GET /Website/kontakt.jsp HTTP/1.1" 200 2102
0:0:0:0:0:0:0:1 - - [19/Jan/2015:16:18:59 +0100] "GET /Website/res/js/jquery-1.11.1.min.js HTTP/1.1" 304 -
0:0:0:0:0:0:0:1 - - [19/Jan/2015:16:18:59 +0100] "GET /Website/res/js/bootstrap.min.js HTTP/1.1" 304 -
0:0:0:0:0:0:0:1 - - [19/Jan/2015:16:18:59 +0100] "GET /Website/res/css/jquery-ui.min.css HTTP/1.1" 304 -
0:0:0:0:0:0:0:1 - - [19/Jan/2015:16:18:59 +0100] "GET /Website/res/js/jquery-ui.min.js HTTP/1.1" 304 -
0:0:0:0:0:0:0:1 - - [19/Jan/2015:16:18:59 +0100] "GET /Website/res/css/bootstrap.min.css HTTP/1.1" 304 -
0:0:0:0:0:0:0:1 - - [19/Jan/2015:16:18:59 +0100] "GET /Website/res/css/ourCss.css HTTP/1.1" 200 1571
0:0:0:0:0:0:0:1 - - [19/Jan/2015:16:19:00 +0100] "GET /Website/index.jsp HTTP/1.1" 200 4588
0:0:0:0:0:0:0:1 - - [19/Jan/2015:16:19:00 +0100] "GET /Website/res/css/ourCss.css HTTP/1.1" 304 -
0:0:0:0:0:0:0:1 - - [19/Jan/2015:16:19:03 +0100] "GET /Website/login.jsp HTTP/1.1" 200 5639
0:0:0:0:0:0:0:1 - - [19/Jan/2015:16:19:03 +0100] "GET /Website/res/css/ourCss.css HTTP/1.1" 304 -
0:0:0:0:0:0:0:1 - - [19/Jan/2015:16:19:30 +0100] "GET /Website/login.jsp HTTP/1.1" 200 5639
0:0:0:0:0:0:0:1 - - [19/Jan/2015:16:19:30 +0100] "GET /Website/res/js/jquery-1.11.1.min.js HTTP/1.1" 304 -
0:0:0:0:0:0:0:1 - - [19/Jan/2015:16:19:30 +0100] "GET /Website/res/css/jquery-ui.min.css HTTP/1.1" 304 -
0:0:0:0:0:0:0:1 - - [19/Jan/2015:16:19:30 +0100] "GET /Website/res/js/bootstrap.min.js HTTP/1.1" 304 -
0:0:0:0:0:0:0:1 - - [19/Jan/2015:16:19:30 +0100] "GET /Website/res/css/bootstrap.min.css HTTP/1.1" 304 -
0:0:0:0:0:0:0:1 - - [19/Jan/2015:16:19:30 +0100] "GET /Website/res/js/jquery-ui.min.js HTTP/1.1" 304 -
0:0:0:0:0:0:0:1 - - [19/Jan/2015:16:19:30 +0100] "GET /Website/res/css/ourCss.css HTTP/1.1" 200 1574
0:0:0:0:0:0:0:1 - - [19/Jan/2015:16:19:30 +0100] "GET /Website/res/img/loginIMG.png HTTP/1.1" 304 -
0:0:0:0:0:0:0:1 - - [19/Jan/2015:16:19:54 +0100] "GET /Website/login.jsp HTTP/1.1" 200 5639
0:0:0:0:0:0:0:1 - - [19/Jan/2015:16:19:54 +0100] "GET /Website/res/js/jquery-1.11.1.min.js HTTP/1.1" 304 -
0:0:0:0:0:0:0:1 - - [19/Jan/2015:16:19:54 +0100] "GET /Website/res/css/jquery-ui.min.css HTTP/1.1" 304 -
0:0:0:0:0:0:0:1 - - [19/Jan/2015:16:19:54 +0100] "GET /Website/res/js/jquery-ui.min.js HTTP/1.1" 304 -
0:0:0:0:0:0:0:1 - - [19/Jan/2015:16:19:54 +0100] "GET /Website/res/js/bootstrap.min.js HTTP/1.1" 304 -
0:0:0:0:0:0:0:1 - - [19/Jan/2015:16:19:54 +0100] "GET /Website/res/css/bootstrap.min.css HTTP/1.1" 304 -
0:0:0:0:0:0:0:1 - - [19/Jan/2015:16:19:54 +0100] "GET /Website/res/css/ourCss.css HTTP/1.1" 200 1541
0:0:0:0:0:0:0:1 - - [19/Jan/2015:16:19:54 +0100] "GET /Website/res/img/loginIMG.png HTTP/1.1" 304 -
0:0:0:0:0:0:0:1 - - [19/Jan/2015:16:19:55 +0100] "GET /Website/index.jsp HTTP/1.1" 200 4588
0:0:0:0:0:0:0:1 - - [19/Jan/2015:16:19:55 +0100] "GET /Website/res/css/ourCss.css HTTP/1.1" 304 -
0:0:0:0:0:0:0:1 - - [19/Jan/2015:16:20:32 +0100] "GET /Website/index.jsp HTTP/1.1" 200 4588
0:0:0:0:0:0:0:1 - - [19/Jan/2015:16:20:32 +0100] "GET /Website/res/js/jquery-1.11.1.min.js HTTP/1.1" 304 -
0:0:0:0:0:0:0:1 - - [19/Jan/2015:16:20:32 +0100] "GET /Website/res/css/bootstrap.min.css HTTP/1.1" 304 -
0:0:0:0:0:0:0:1 - - [19/Jan/2015:16:20:32 +0100] "GET /Website/res/js/jquery-ui.min.js HTTP/1.1" 304 -
0:0:0:0:0:0:0:1 - - [19/Jan/2015:16:20:32 +0100] "GET /Website/res/js/bootstrap.min.js HTTP/1.1" 304 -
0:0:0:0:0:0:0:1 - - [19/Jan/2015:16:20:32 +0100] "GET /Website/res/css/jquery-ui.min.css HTTP/1.1" 304 -
0:0:0:0:0:0:0:1 - - [19/Jan/2015:16:20:32 +0100] "GET /Website/res/css/ourCss.css HTTP/1.1" 200 1541
0:0:0:0:0:0:0:1 - - [19/Jan/2015:16:20:32 +0100] "GET /Website/res/img/collage.jpg HTTP/1.1" 304 -
0:0:0:0:0:0:0:1 - - [19/Jan/2015:16:22:25 +0100] "GET /Website/index.jsp HTTP/1.1" 200 4588
0:0:0:0:0:0:0:1 - - [19/Jan/2015:16:22:25 +0100] "GET /Website/res/js/jquery-1.11.1.min.js HTTP/1.1" 304 -
0:0:0:0:0:0:0:1 - - [19/Jan/2015:16:22:25 +0100] "GET /Website/res/css/bootstrap.min.css HTTP/1.1" 304 -
0:0:0:0:0:0:0:1 - - [19/Jan/2015:16:22:25 +0100] "GET /Website/res/css/jquery-ui.min.css HTTP/1.1" 304 -
0:0:0:0:0:0:0:1 - - [19/Jan/2015:16:22:25 +0100] "GET /Website/res/js/jquery-ui.min.js HTTP/1.1" 304 -
0:0:0:0:0:0:0:1 - - [19/Jan/2015:16:22:25 +0100] "GET /Website/res/js/bootstrap.min.js HTTP/1.1" 304 -
0:0:0:0:0:0:0:1 - - [19/Jan/2015:16:22:25 +0100] "GET /Website/res/css/ourCss.css HTTP/1.1" 304 -
0:0:0:0:0:0:0:1 - - [19/Jan/2015:16:22:25 +0100] "GET /Website/res/img/collage.jpg HTTP/1.1" 304 -
0:0:0:0:0:0:0:1 - - [19/Jan/2015:16:22:27 +0100] "GET /Website/kontakt.jsp HTTP/1.1" 200 2118
0:0:0:0:0:0:0:1 - - [19/Jan/2015:16:22:40 +0100] "GET /Website/index.jsp HTTP/1.1" 200 4588
0:0:0:0:0:0:0:1 - - [19/Jan/2015:16:22:40 +0100] "GET /Website/res/css/ourCss.css HTTP/1.1" 304 -
0:0:0:0:0:0:0:1 - - [19/Jan/2015:16:23:42 +0100] "GET /Website/index.jsp HTTP/1.1" 200 4588
0:0:0:0:0:0:0:1 - - [19/Jan/2015:16:23:42 +0100] "GET /Website/res/js/jquery-1.11.1.min.js HTTP/1.1" 304 -
0:0:0:0:0:0:0:1 - - [19/Jan/2015:16:23:42 +0100] "GET /Website/res/js/bootstrap.min.js HTTP/1.1" 304 -
0:0:0:0:0:0:0:1 - - [19/Jan/2015:16:23:42 +0100] "GET /Website/res/js/jquery-ui.min.js HTTP/1.1" 304 -
0:0:0:0:0:0:0:1 - - [19/Jan/2015:16:23:42 +0100] "GET /Website/res/css/bootstrap.min.css HTTP/1.1" 304 -
0:0:0:0:0:0:0:1 - - [19/Jan/2015:16:23:42 +0100] "GET /Website/res/css/jquery-ui.min.css HTTP/1.1" 304 -
0:0:0:0:0:0:0:1 - - [19/Jan/2015:16:23:42 +0100] "GET /Website/res/css/ourCss.css HTTP/1.1" 200 1512
0:0:0:0:0:0:0:1 - - [19/Jan/2015:16:23:42 +0100] "GET /Website/res/img/collage.jpg HTTP/1.1" 304 -
0:0:0:0:0:0:0:1 - - [19/Jan/2015:16:23:53 +0100] "GET /Website/index.jsp HTTP/1.1" 200 4588
0:0:0:0:0:0:0:1 - - [19/Jan/2015:16:23:53 +0100] "GET /Website/res/js/jquery-1.11.1.min.js HTTP/1.1" 304 -
0:0:0:0:0:0:0:1 - - [19/Jan/2015:16:23:53 +0100] "GET /Website/res/js/jquery-ui.min.js HTTP/1.1" 304 -
0:0:0:0:0:0:0:1 - - [19/Jan/2015:16:23:53 +0100] "GET /Website/res/js/bootstrap.min.js HTTP/1.1" 304 -
0:0:0:0:0:0:0:1 - - [19/Jan/2015:16:23:53 +0100] "GET /Website/res/css/bootstrap.min.css HTTP/1.1" 304 -
0:0:0:0:0:0:0:1 - - [19/Jan/2015:16:23:53 +0100] "GET /Website/res/css/jquery-ui.min.css HTTP/1.1" 304 -
0:0:0:0:0:0:0:1 - - [19/Jan/2015:16:23:53 +0100] "GET /Website/res/css/ourCss.css HTTP/1.1" 304 -
0:0:0:0:0:0:0:1 - - [19/Jan/2015:16:23:53 +0100] "GET /Website/res/img/collage.jpg HTTP/1.1" 304 -
0:0:0:0:0:0:0:1 - - [19/Jan/2015:16:25:04 +0100] "GET /Website/index.jsp HTTP/1.1" 200 4633
0:0:0:0:0:0:0:1 - - [19/Jan/2015:16:25:04 +0100] "GET /Website/res/js/jquery-1.11.1.min.js HTTP/1.1" 304 -
0:0:0:0:0:0:0:1 - - [19/Jan/2015:16:25:04 +0100] "GET /Website/res/js/bootstrap.min.js HTTP/1.1" 304 -
0:0:0:0:0:0:0:1 - - [19/Jan/2015:16:25:04 +0100] "GET /Website/res/css/ourCss.css HTTP/1.1" 304 -
0:0:0:0:0:0:0:1 - - [19/Jan/2015:16:25:04 +0100] "GET /Website/res/js/jquery-ui.min.js HTTP/1.1" 304 -
0:0:0:0:0:0:0:1 - - [19/Jan/2015:16:25:04 +0100] "GET /Website/res/css/jquery-ui.min.css HTTP/1.1" 304 -
0:0:0:0:0:0:0:1 - - [19/Jan/2015:16:25:04 +0100] "GET /Website/res/css/bootstrap.min.css HTTP/1.1" 304 -
0:0:0:0:0:0:0:1 - - [19/Jan/2015:16:25:04 +0100] "GET /Website/res/img/collage.jpg HTTP/1.1" 304 -
0:0:0:0:0:0:0:1 - - [19/Jan/2015:16:25:31 +0100] "GET /Website/index.jsp HTTP/1.1" 200 4621
0:0:0:0:0:0:0:1 - - [19/Jan/2015:16:25:31 +0100] "GET /Website/res/js/jquery-1.11.1.min.js HTTP/1.1" 304 -
0:0:0:0:0:0:0:1 - - [19/Jan/2015:16:25:31 +0100] "GET /Website/res/css/bootstrap.min.css HTTP/1.1" 304 -
0:0:0:0:0:0:0:1 - - [19/Jan/2015:16:25:31 +0100] "GET /Website/res/js/jquery-ui.min.js HTTP/1.1" 304 -
0:0:0:0:0:0:0:1 - - [19/Jan/2015:16:25:31 +0100] "GET /Website/res/js/bootstrap.min.js HTTP/1.1" 304 -
0:0:0:0:0:0:0:1 - - [19/Jan/2015:16:25:31 +0100] "GET /Website/res/css/jquery-ui.min.css HTTP/1.1" 304 -
0:0:0:0:0:0:0:1 - - [19/Jan/2015:16:25:31 +0100] "GET /Website/res/css/ourCss.css HTTP/1.1" 304 -
0:0:0:0:0:0:0:1 - - [19/Jan/2015:16:25:31 +0100] "GET /Website/res/img/collage.jpg HTTP/1.1" 304 -
0:0:0:0:0:0:0:1 - - [19/Jan/2015:16:28:27 +0100] "GET /Website/index.jsp HTTP/1.1" 200 4621
0:0:0:0:0:0:0:1 - - [19/Jan/2015:16:28:27 +0100] "GET /Website/res/js/jquery-1.11.1.min.js HTTP/1.1" 304 -
0:0:0:0:0:0:0:1 - - [19/Jan/2015:16:28:27 +0100] "GET /Website/res/css/ourCss.css HTTP/1.1" 304 -
0:0:0:0:0:0:0:1 - - [19/Jan/2015:16:28:27 +0100] "GET /Website/res/js/jquery-ui.min.js HTTP/1.1" 304 -
0:0:0:0:0:0:0:1 - - [19/Jan/2015:16:28:27 +0100] "GET /Website/res/css/jquery-ui.min.css HTTP/1.1" 304 -
0:0:0:0:0:0:0:1 - - [19/Jan/2015:16:28:27 +0100] "GET /Website/res/css/bootstrap.min.css HTTP/1.1" 304 -
0:0:0:0:0:0:0:1 - - [19/Jan/2015:16:28:27 +0100] "GET /Website/res/js/bootstrap.min.js HTTP/1.1" 304 -
0:0:0:0:0:0:0:1 - - [19/Jan/2015:16:28:27 +0100] "GET /Website/res/img/collage.jpg HTTP/1.1" 304 -
0:0:0:0:0:0:0:1 - - [19/Jan/2015:16:28:28 +0100] "GET /Website/kontakt.jsp HTTP/1.1" 200 2522
0:0:0:0:0:0:0:1 - - [19/Jan/2015:16:28:42 +0100] "GET /Website/kontakt.jsp HTTP/1.1" 200 2532
0:0:0:0:0:0:0:1 - - [19/Jan/2015:16:28:42 +0100] "GET /Website/res/js/jquery-1.11.1.min.js HTTP/1.1" 304 -
0:0:0:0:0:0:0:1 - - [19/Jan/2015:16:28:42 +0100] "GET /Website/res/js/jquery-ui.min.js HTTP/1.1" 304 -
0:0:0:0:0:0:0:1 - - [19/Jan/2015:16:28:42 +0100] "GET /Website/res/js/bootstrap.min.js HTTP/1.1" 304 -
0:0:0:0:0:0:0:1 - - [19/Jan/2015:16:28:42 +0100] "GET /Website/res/css/bootstrap.min.css HTTP/1.1" 304 -
0:0:0:0:0:0:0:1 - - [19/Jan/2015:16:28:42 +0100] "GET /Website/res/css/jquery-ui.min.css HTTP/1.1" 304 -
0:0:0:0:0:0:0:1 - - [19/Jan/2015:16:28:42 +0100] "GET /Website/res/css/ourCss.css HTTP/1.1" 304 -
0:0:0:0:0:0:0:1 - - [19/Jan/2015:16:28:46 +0100] "GET /Website/index.jsp HTTP/1.1" 200 4621
0:0:0:0:0:0:0:1 - - [19/Jan/2015:16:28:47 +0100] "GET /Website/login.jsp HTTP/1.1" 200 5639
0:0:0:0:0:0:0:1 - - [19/Jan/2015:16:28:50 +0100] "GET /Website/listTop5.jsp HTTP/1.1" 200 3466
0:0:0:0:0:0:0:1 - - [19/Jan/2015:16:28:52 +0100] "GET /Website/index.jsp HTTP/1.1" 200 4621
0:0:0:0:0:0:0:1 - - [19/Jan/2015:16:28:55 +0100] "GET /Website/kontakt.jsp HTTP/1.1" 200 2532
0:0:0:0:0:0:0:1 - - [19/Jan/2015:16:29:06 +0100] "GET /Website/listTop5.jsp HTTP/1.1" 200 3466
0:0:0:0:0:0:0:1 - - [19/Jan/2015:16:29:07 +0100] "GET /Website/index.jsp HTTP/1.1" 200 4621
0:0:0:0:0:0:0:1 - - [19/Jan/2015:16:29:10 +0100] "GET /Website/kontakt.jsp HTTP/1.1" 200 2532
0:0:0:0:0:0:0:1 - - [19/Jan/2015:16:29:20 +0100] "GET /Website/kontakt.jsp HTTP/1.1" 200 2517
0:0:0:0:0:0:0:1 - - [19/Jan/2015:16:29:20 +0100] "GET /Website/res/js/jquery-1.11.1.min.js HTTP/1.1" 304 -
0:0:0:0:0:0:0:1 - - [19/Jan/2015:16:29:20 +0100] "GET /Website/res/css/ourCss.css HTTP/1.1" 304 -
0:0:0:0:0:0:0:1 - - [19/Jan/2015:16:29:20 +0100] "GET /Website/res/css/bootstrap.min.css HTTP/1.1" 304 -
0:0:0:0:0:0:0:1 - - [19/Jan/2015:16:29:20 +0100] "GET /Website/res/js/jquery-ui.min.js HTTP/1.1" 304 -
0:0:0:0:0:0:0:1 - - [19/Jan/2015:16:29:20 +0100] "GET /Website/res/css/jquery-ui.min.css HTTP/1.1" 304 -
0:0:0:0:0:0:0:1 - - [19/Jan/2015:16:29:20 +0100] "GET /Website/res/js/bootstrap.min.js HTTP/1.1" 304 -
0:0:0:0:0:0:0:1 - - [19/Jan/2015:16:29:57 +0100] "GET /Website/index.jsp HTTP/1.1" 200 4621
0:0:0:0:0:0:0:1 - - [19/Jan/2015:16:29:57 +0100] "GET /Website/res/css/ourCss.css HTTP/1.1" 304 -
0:0:0:0:0:0:0:1 - - [19/Jan/2015:16:30:17 +0100] "GET /Website/index.jsp HTTP/1.1" 200 4621
0:0:0:0:0:0:0:1 - - [19/Jan/2015:16:30:17 +0100] "GET /Website/res/js/jquery-1.11.1.min.js HTTP/1.1" 304 -
0:0:0:0:0:0:0:1 - - [19/Jan/2015:16:30:17 +0100] "GET /Website/res/css/jquery-ui.min.css HTTP/1.1" 304 -
0:0:0:0:0:0:0:1 - - [19/Jan/2015:16:30:17 +0100] "GET /Website/res/js/jquery-ui.min.js HTTP/1.1" 304 -
0:0:0:0:0:0:0:1 - - [19/Jan/2015:16:30:17 +0100] "GET /Website/res/css/bootstrap.min.css HTTP/1.1" 304 -
0:0:0:0:0:0:0:1 - - [19/Jan/2015:16:30:17 +0100] "GET /Website/res/css/ourCss.css HTTP/1.1" 304 -
0:0:0:0:0:0:0:1 - - [19/Jan/2015:16:30:17 +0100] "GET /Website/res/js/bootstrap.min.js HTTP/1.1" 304 -
0:0:0:0:0:0:0:1 - - [19/Jan/2015:16:30:17 +0100] "GET /Website/res/img/collage.jpg HTTP/1.1" 304 -
0:0:0:0:0:0:0:1 - - [19/Jan/2015:16:30:18 +0100] "GET /Website/kontakt.jsp HTTP/1.1" 200 2526
0:0:0:0:0:0:0:1 - - [19/Jan/2015:16:30:24 +0100] "GET /Website/login.jsp HTTP/1.1" 200 5639
0:0:0:0:0:0:0:1 - - [19/Jan/2015:16:30:52 +0100] "GET /Website/login.jsp HTTP/1.1" 200 5639
0:0:0:0:0:0:0:1 - - [19/Jan/2015:16:30:52 +0100] "GET /Website/res/js/jquery-1.11.1.min.js HTTP/1.1" 304 -
0:0:0:0:0:0:0:1 - - [19/Jan/2015:16:30:52 +0100] "GET /Website/res/css/jquery-ui.min.css HTTP/1.1" 304 -
0:0:0:0:0:0:0:1 - - [19/Jan/2015:16:30:52 +0100] "GET /Website/res/css/bootstrap.min.css HTTP/1.1" 304 -
0:0:0:0:0:0:0:1 - - [19/Jan/2015:16:30:52 +0100] "GET /Website/res/js/bootstrap.min.js HTTP/1.1" 304 -
0:0:0:0:0:0:0:1 - - [19/Jan/2015:16:30:52 +0100] "GET /Website/res/css/ourCss.css HTTP/1.1" 304 -
0:0:0:0:0:0:0:1 - - [19/Jan/2015:16:30:52 +0100] "GET /Website/res/js/jquery-ui.min.js HTTP/1.1" 304 -
0:0:0:0:0:0:0:1 - - [19/Jan/2015:16:30:52 +0100] "GET /Website/res/img/loginIMG.png HTTP/1.1" 304 -
0:0:0:0:0:0:0:1 - - [19/Jan/2015:16:30:54 +0100] "GET /Website/index.jsp HTTP/1.1" 200 4621
0:0:0:0:0:0:0:1 - - [19/Jan/2015:16:30:56 +0100] "GET /Website/kontakt.jsp HTTP/1.1" 200 2526
0:0:0:0:0:0:0:1 - - [19/Jan/2015:16:31:14 +0100] "GET /Website/kontakt.jsp HTTP/1.1" 200 2526
0:0:0:0:0:0:0:1 - - [19/Jan/2015:16:31:14 +0100] "GET /Website/res/js/jquery-1.11.1.min.js HTTP/1.1" 304 -
0:0:0:0:0:0:0:1 - - [19/Jan/2015:16:31:14 +0100] "GET /Website/res/css/bootstrap.min.css HTTP/1.1" 304 -
0:0:0:0:0:0:0:1 - - [19/Jan/2015:16:31:14 +0100] "GET /Website/res/js/jquery-ui.min.js HTTP/1.1" 304 -
0:0:0:0:0:0:0:1 - - [19/Jan/2015:16:31:14 +0100] "GET /Website/res/css/jquery-ui.min.css HTTP/1.1" 304 -
0:0:0:0:0:0:0:1 - - [19/Jan/2015:16:31:14 +0100] "GET /Website/res/js/bootstrap.min.js HTTP/1.1" 304 -
0:0:0:0:0:0:0:1 - - [19/Jan/2015:16:31:14 +0100] "GET /Website/res/css/ourCss.css HTTP/1.1" 304 -
0:0:0:0:0:0:0:1 - - [19/Jan/2015:16:31:25 +0100] "GET /Website/kontakt.jsp HTTP/1.1" 200 2542
0:0:0:0:0:0:0:1 - - [19/Jan/2015:16:31:25 +0100] "GET /Website/res/js/jquery-1.11.1.min.js HTTP/1.1" 304 -
0:0:0:0:0:0:0:1 - - [19/Jan/2015:16:31:25 +0100] "GET /Website/res/js/bootstrap.min.js HTTP/1.1" 304 -
0:0:0:0:0:0:0:1 - - [19/Jan/2015:16:31:25 +0100] "GET /Website/res/js/jquery-ui.min.js HTTP/1.1" 304 -
0:0:0:0:0:0:0:1 - - [19/Jan/2015:16:31:25 +0100] "GET /Website/res/css/bootstrap.min.css HTTP/1.1" 304 -
0:0:0:0:0:0:0:1 - - [19/Jan/2015:16:31:25 +0100] "GET /Website/res/css/jquery-ui.min.css HTTP/1.1" 304 -
0:0:0:0:0:0:0:1 - - [19/Jan/2015:16:31:25 +0100] "GET /Website/res/css/ourCss.css HTTP/1.1" 304 -
0:0:0:0:0:0:0:1 - - [19/Jan/2015:16:31:26 +0100] "GET /Website/kontakt.jsp HTTP/1.1" 200 2542
0:0:0:0:0:0:0:1 - - [19/Jan/2015:16:31:26 +0100] "GET /Website/res/js/jquery-1.11.1.min.js HTTP/1.1" 304 -
0:0:0:0:0:0:0:1 - - [19/Jan/2015:16:31:26 +0100] "GET /Website/res/js/jquery-ui.min.js HTTP/1.1" 304 -
0:0:0:0:0:0:0:1 - - [19/Jan/2015:16:31:26 +0100] "GET /Website/res/js/bootstrap.min.js HTTP/1.1" 304 -
0:0:0:0:0:0:0:1 - - [19/Jan/2015:16:31:26 +0100] "GET /Website/res/css/bootstrap.min.css HTTP/1.1" 304 -
0:0:0:0:0:0:0:1 - - [19/Jan/2015:16:31:26 +0100] "GET /Website/res/css/jquery-ui.min.css HTTP/1.1" 304 -
0:0:0:0:0:0:0:1 - - [19/Jan/2015:16:31:26 +0100] "GET /Website/res/css/ourCss.css HTTP/1.1" 304 -
0:0:0:0:0:0:0:1 - - [19/Jan/2015:16:31:34 +0100] "GET /Website/kontakt.jsp HTTP/1.1" 200 2541
0:0:0:0:0:0:0:1 - - [19/Jan/2015:16:31:34 +0100] "GET /Website/res/js/jquery-1.11.1.min.js HTTP/1.1" 304 -
0:0:0:0:0:0:0:1 - - [19/Jan/2015:16:31:34 +0100] "GET /Website/res/js/jquery-ui.min.js HTTP/1.1" 304 -
0:0:0:0:0:0:0:1 - - [19/Jan/2015:16:31:34 +0100] "GET /Website/res/js/bootstrap.min.js HTTP/1.1" 304 -
0:0:0:0:0:0:0:1 - - [19/Jan/2015:16:31:34 +0100] "GET /Website/res/css/bootstrap.min.css HTTP/1.1" 304 -
0:0:0:0:0:0:0:1 - - [19/Jan/2015:16:31:34 +0100] "GET /Website/res/css/jquery-ui.min.css HTTP/1.1" 304 -
0:0:0:0:0:0:0:1 - - [19/Jan/2015:16:31:34 +0100] "GET /Website/res/css/ourCss.css HTTP/1.1" 304 -
0:0:0:0:0:0:0:1 - - [19/Jan/2015:16:32:47 +0100] "GET /Website/kontakt.jsp HTTP/1.1" 200 2614
0:0:0:0:0:0:0:1 - - [19/Jan/2015:16:32:47 +0100] "GET /Website/res/js/jquery-1.11.1.min.js HTTP/1.1" 304 -
0:0:0:0:0:0:0:1 - - [19/Jan/2015:16:32:47 +0100] "GET /Website/res/css/ourCss.css HTTP/1.1" 304 -
0:0:0:0:0:0:0:1 - - [19/Jan/2015:16:32:47 +0100] "GET /Website/res/js/jquery-ui.min.js HTTP/1.1" 304 -
0:0:0:0:0:0:0:1 - - [19/Jan/2015:16:32:47 +0100] "GET /Website/res/css/bootstrap.min.css HTTP/1.1" 304 -
0:0:0:0:0:0:0:1 - - [19/Jan/2015:16:32:47 +0100] "GET /Website/res/js/bootstrap.min.js HTTP/1.1" 304 -
0:0:0:0:0:0:0:1 - - [19/Jan/2015:16:32:47 +0100] "GET /Website/res/css/jquery-ui.min.css HTTP/1.1" 304 -
0:0:0:0:0:0:0:1 - - [19/Jan/2015:16:32:48 +0100] "GET /Website/kontakt.jsp HTTP/1.1" 200 2614
0:0:0:0:0:0:0:1 - - [19/Jan/2015:16:32:48 +0100] "GET /Website/res/js/jquery-1.11.1.min.js HTTP/1.1" 304 -
0:0:0:0:0:0:0:1 - - [19/Jan/2015:16:32:48 +0100] "GET /Website/res/js/jquery-ui.min.js HTTP/1.1" 304 -
0:0:0:0:0:0:0:1 - - [19/Jan/2015:16:32:48 +0100] "GET /Website/res/js/bootstrap.min.js HTTP/1.1" 304 -
0:0:0:0:0:0:0:1 - - [19/Jan/2015:16:32:48 +0100] "GET /Website/res/css/bootstrap.min.css HTTP/1.1" 304 -
0:0:0:0:0:0:0:1 - - [19/Jan/2015:16:32:48 +0100] "GET /Website/res/css/jquery-ui.min.css HTTP/1.1" 304 -
0:0:0:0:0:0:0:1 - - [19/Jan/2015:16:32:48 +0100] "GET /Website/res/css/ourCss.css HTTP/1.1" 304 -
0:0:0:0:0:0:0:1 - - [19/Jan/2015:16:33:08 +0100] "GET /Website/kontakt.jsp HTTP/1.1" 200 2692
0:0:0:0:0:0:0:1 - - [19/Jan/2015:16:33:08 +0100] "GET /Website/res/js/jquery-1.11.1.min.js HTTP/1.1" 304 -
0:0:0:0:0:0:0:1 - - [19/Jan/2015:16:33:08 +0100] "GET /Website/res/js/bootstrap.min.js HTTP/1.1" 304 -
0:0:0:0:0:0:0:1 - - [19/Jan/2015:16:33:08 +0100] "GET /Website/res/css/bootstrap.min.css HTTP/1.1" 304 -
0:0:0:0:0:0:0:1 - - [19/Jan/2015:16:33:08 +0100] "GET /Website/res/css/jquery-ui.min.css HTTP/1.1" 304 -
0:0:0:0:0:0:0:1 - - [19/Jan/2015:16:33:08 +0100] "GET /Website/res/css/ourCss.css HTTP/1.1" 304 -
0:0:0:0:0:0:0:1 - - [19/Jan/2015:16:33:08 +0100] "GET /Website/res/js/jquery-ui.min.js HTTP/1.1" 304 -
0:0:0:0:0:0:0:1 - - [19/Jan/2015:16:33:09 +0100] "GET /Website/kontakt.jsp HTTP/1.1" 200 2692
0:0:0:0:0:0:0:1 - - [19/Jan/2015:16:33:09 +0100] "GET /Website/res/js/jquery-1.11.1.min.js HTTP/1.1" 304 -
0:0:0:0:0:0:0:1 - - [19/Jan/2015:16:33:09 +0100] "GET /Website/res/js/jquery-ui.min.js HTTP/1.1" 304 -
0:0:0:0:0:0:0:1 - - [19/Jan/2015:16:33:09 +0100] "GET /Website/res/js/bootstrap.min.js HTTP/1.1" 304 -
0:0:0:0:0:0:0:1 - - [19/Jan/2015:16:33:09 +0100] "GET /Website/res/css/bootstrap.min.css HTTP/1.1" 304 -
0:0:0:0:0:0:0:1 - - [19/Jan/2015:16:33:09 +0100] "GET /Website/res/css/jquery-ui.min.css HTTP/1.1" 304 -
0:0:0:0:0:0:0:1 - - [19/Jan/2015:16:33:09 +0100] "GET /Website/res/css/ourCss.css HTTP/1.1" 304 -
0:0:0:0:0:0:0:1 - - [19/Jan/2015:16:33:19 +0100] "GET /Website/kontakt.jsp HTTP/1.1" 200 2691
0:0:0:0:0:0:0:1 - - [19/Jan/2015:16:33:19 +0100] "GET /Website/res/js/jquery-1.11.1.min.js HTTP/1.1" 304 -
0:0:0:0:0:0:0:1 - - [19/Jan/2015:16:33:19 +0100] "GET /Website/res/js/jquery-ui.min.js HTTP/1.1" 304 -
0:0:0:0:0:0:0:1 - - [19/Jan/2015:16:33:19 +0100] "GET /Website/res/js/bootstrap.min.js HTTP/1.1" 304 -
0:0:0:0:0:0:0:1 - - [19/Jan/2015:16:33:19 +0100] "GET /Website/res/css/bootstrap.min.css HTTP/1.1" 304 -
0:0:0:0:0:0:0:1 - - [19/Jan/2015:16:33:19 +0100] "GET /Website/res/css/jquery-ui.min.css HTTP/1.1" 304 -
0:0:0:0:0:0:0:1 - - [19/Jan/2015:16:33:19 +0100] "GET /Website/res/css/ourCss.css HTTP/1.1" 304 -
0:0:0:0:0:0:0:1 - - [19/Jan/2015:16:33:45 +0100] "GET /Website/kontakt.jsp HTTP/1.1" 200 2601
0:0:0:0:0:0:0:1 - - [19/Jan/2015:16:33:45 +0100] "GET /Website/res/js/jquery-1.11.1.min.js HTTP/1.1" 304 -
0:0:0:0:0:0:0:1 - - [19/Jan/2015:16:33:45 +0100] "GET /Website/res/css/bootstrap.min.css HTTP/1.1" 304 -
0:0:0:0:0:0:0:1 - - [19/Jan/2015:16:33:45 +0100] "GET /Website/res/css/jquery-ui.min.css HTTP/1.1" 304 -
0:0:0:0:0:0:0:1 - - [19/Jan/2015:16:33:45 +0100] "GET /Website/res/css/ourCss.css HTTP/1.1" 304 -
0:0:0:0:0:0:0:1 - - [19/Jan/2015:16:33:45 +0100] "GET /Website/res/js/jquery-ui.min.js HTTP/1.1" 304 -
0:0:0:0:0:0:0:1 - - [19/Jan/2015:16:33:45 +0100] "GET /Website/res/js/bootstrap.min.js HTTP/1.1" 304 -
0:0:0:0:0:0:0:1 - - [19/Jan/2015:16:34:30 +0100] "GET /Website/kontakt.jsp HTTP/1.1" 200 2463
0:0:0:0:0:0:0:1 - - [19/Jan/2015:16:34:30 +0100] "GET /Website/res/js/jquery-1.11.1.min.js HTTP/1.1" 304 -
0:0:0:0:0:0:0:1 - - [19/Jan/2015:16:34:30 +0100] "GET /Website/res/css/bootstrap.min.css HTTP/1.1" 304 -
0:0:0:0:0:0:0:1 - - [19/Jan/2015:16:34:30 +0100] "GET /Website/res/css/ourCss.css HTTP/1.1" 304 -
0:0:0:0:0:0:0:1 - - [19/Jan/2015:16:34:30 +0100] "GET /Website/res/js/bootstrap.min.js HTTP/1.1" 304 -
0:0:0:0:0:0:0:1 - - [19/Jan/2015:16:34:30 +0100] "GET /Website/res/js/jquery-ui.min.js HTTP/1.1" 304 -
0:0:0:0:0:0:0:1 - - [19/Jan/2015:16:34:30 +0100] "GET /Website/res/css/jquery-ui.min.css HTTP/1.1" 304 -
0:0:0:0:0:0:0:1 - - [19/Jan/2015:16:35:00 +0100] "GET /Website/kontakt.jsp HTTP/1.1" 200 2515
0:0:0:0:0:0:0:1 - - [19/Jan/2015:16:35:00 +0100] "GET /Website/res/js/jquery-1.11.1.min.js HTTP/1.1" 304 -
0:0:0:0:0:0:0:1 - - [19/Jan/2015:16:35:00 +0100] "GET /Website/res/css/ourCss.css HTTP/1.1" 304 -
0:0:0:0:0:0:0:1 - - [19/Jan/2015:16:35:00 +0100] "GET /Website/res/css/bootstrap.min.css HTTP/1.1" 304 -
0:0:0:0:0:0:0:1 - - [19/Jan/2015:16:35:00 +0100] "GET /Website/res/js/bootstrap.min.js HTTP/1.1" 304 -
0:0:0:0:0:0:0:1 - - [19/Jan/2015:16:35:00 +0100] "GET /Website/res/css/jquery-ui.min.css HTTP/1.1" 304 -
0:0:0:0:0:0:0:1 - - [19/Jan/2015:16:35:00 +0100] "GET /Website/res/js/jquery-ui.min.js HTTP/1.1" 304 -
0:0:0:0:0:0:0:1 - - [19/Jan/2015:16:38:44 +0100] "GET /Website/kontakt.jsp HTTP/1.1" 200 2589
0:0:0:0:0:0:0:1 - - [19/Jan/2015:16:38:44 +0100] "GET /Website/res/js/jquery-1.11.1.min.js HTTP/1.1" 304 -
0:0:0:0:0:0:0:1 - - [19/Jan/2015:16:38:44 +0100] "GET /Website/res/js/jquery-ui.min.js HTTP/1.1" 304 -
0:0:0:0:0:0:0:1 - - [19/Jan/2015:16:38:44 +0100] "GET /Website/res/css/ourCss.css HTTP/1.1" 304 -
0:0:0:0:0:0:0:1 - - [19/Jan/2015:16:38:44 +0100] "GET /Website/res/css/bootstrap.min.css HTTP/1.1" 304 -
0:0:0:0:0:0:0:1 - - [19/Jan/2015:16:38:44 +0100] "GET /Website/res/css/jquery-ui.min.css HTTP/1.1" 304 -
0:0:0:0:0:0:0:1 - - [19/Jan/2015:16:38:44 +0100] "GET /Website/res/js/bootstrap.min.js HTTP/1.1" 304 -
0:0:0:0:0:0:0:1 - - [19/Jan/2015:16:39:14 +0100] "GET /Website/kontakt.jsp HTTP/1.1" 200 2609
0:0:0:0:0:0:0:1 - - [19/Jan/2015:16:39:14 +0100] "GET /Website/res/js/jquery-1.11.1.min.js HTTP/1.1" 304 -
0:0:0:0:0:0:0:1 - - [19/Jan/2015:16:39:14 +0100] "GET /Website/res/css/ourCss.css HTTP/1.1" 304 -
0:0:0:0:0:0:0:1 - - [19/Jan/2015:16:39:14 +0100] "GET /Website/res/js/jquery-ui.min.js HTTP/1.1" 304 -
0:0:0:0:0:0:0:1 - - [19/Jan/2015:16:39:14 +0100] "GET /Website/res/css/jquery-ui.min.css HTTP/1.1" 304 -
0:0:0:0:0:0:0:1 - - [19/Jan/2015:16:39:14 +0100] "GET /Website/res/js/bootstrap.min.js HTTP/1.1" 304 -
0:0:0:0:0:0:0:1 - - [19/Jan/2015:16:39:14 +0100] "GET /Website/res/css/bootstrap.min.css HTTP/1.1" 304 -
0:0:0:0:0:0:0:1 - - [19/Jan/2015:16:39:19 +0100] "GET /Website/kontakt.jsp HTTP/1.1" 200 2609
0:0:0:0:0:0:0:1 - - [19/Jan/2015:16:39:19 +0100] "GET /Website/res/js/jquery-ui.min.js HTTP/1.1" 304 -
0:0:0:0:0:0:0:1 - - [19/Jan/2015:16:39:19 +0100] "GET /Website/res/js/jquery-1.11.1.min.js HTTP/1.1" 304 -
0:0:0:0:0:0:0:1 - - [19/Jan/2015:16:39:19 +0100] "GET /Website/res/js/bootstrap.min.js HTTP/1.1" 304 -
0:0:0:0:0:0:0:1 - - [19/Jan/2015:16:39:19 +0100] "GET /Website/res/css/bootstrap.min.css HTTP/1.1" 304 -
0:0:0:0:0:0:0:1 - - [19/Jan/2015:16:39:19 +0100] "GET /Website/res/css/jquery-ui.min.css HTTP/1.1" 304 -
0:0:0:0:0:0:0:1 - - [19/Jan/2015:16:39:19 +0100] "GET /Website/res/css/ourCss.css HTTP/1.1" 304 -
0:0:0:0:0:0:0:1 - - [19/Jan/2015:16:39:44 +0100] "GET /Website/kontakt.jsp HTTP/1.1" 200 2566
0:0:0:0:0:0:0:1 - - [19/Jan/2015:16:39:44 +0100] "GET /Website/res/js/jquery-1.11.1.min.js HTTP/1.1" 304 -
0:0:0:0:0:0:0:1 - - [19/Jan/2015:16:39:44 +0100] "GET /Website/res/js/jquery-ui.min.js HTTP/1.1" 304 -
0:0:0:0:0:0:0:1 - - [19/Jan/2015:16:39:44 +0100] "GET /Website/res/js/bootstrap.min.js HTTP/1.1" 304 -
0:0:0:0:0:0:0:1 - - [19/Jan/2015:16:39:44 +0100] "GET /Website/res/css/bootstrap.min.css HTTP/1.1" 304 -
0:0:0:0:0:0:0:1 - - [19/Jan/2015:16:39:44 +0100] "GET /Website/res/css/jquery-ui.min.css HTTP/1.1" 304 -
0:0:0:0:0:0:0:1 - - [19/Jan/2015:16:39:44 +0100] "GET /Website/res/css/ourCss.css HTTP/1.1" 304 -
0:0:0:0:0:0:0:1 - - [19/Jan/2015:16:39:45 +0100] "GET /Website/kontakt.jsp HTTP/1.1" 200 2566
0:0:0:0:0:0:0:1 - - [19/Jan/2015:16:39:45 +0100] "GET /Website/res/js/jquery-1.11.1.min.js HTTP/1.1" 304 -
0:0:0:0:0:0:0:1 - - [19/Jan/2015:16:39:45 +0100] "GET /Website/res/js/jquery-ui.min.js HTTP/1.1" 304 -
0:0:0:0:0:0:0:1 - - [19/Jan/2015:16:39:45 +0100] "GET /Website/res/js/bootstrap.min.js HTTP/1.1" 304 -
0:0:0:0:0:0:0:1 - - [19/Jan/2015:16:39:45 +0100] "GET /Website/res/css/bootstrap.min.css HTTP/1.1" 304 -
0:0:0:0:0:0:0:1 - - [19/Jan/2015:16:39:45 +0100] "GET /Website/res/css/jquery-ui.min.css HTTP/1.1" 304 -
0:0:0:0:0:0:0:1 - - [19/Jan/2015:16:39:45 +0100] "GET /Website/res/css/ourCss.css HTTP/1.1" 304 -
0:0:0:0:0:0:0:1 - - [19/Jan/2015:16:39:57 +0100] "GET /Website/kontakt.jsp HTTP/1.1" 200 2562
0:0:0:0:0:0:0:1 - - [19/Jan/2015:16:39:57 +0100] "GET /Website/res/js/jquery-1.11.1.min.js HTTP/1.1" 304 -
0:0:0:0:0:0:0:1 - - [19/Jan/2015:16:39:57 +0100] "GET /Website/res/js/jquery-ui.min.js HTTP/1.1" 304 -
0:0:0:0:0:0:0:1 - - [19/Jan/2015:16:39:57 +0100] "GET /Website/res/js/bootstrap.min.js HTTP/1.1" 304 -
0:0:0:0:0:0:0:1 - - [19/Jan/2015:16:39:57 +0100] "GET /Website/res/css/bootstrap.min.css HTTP/1.1" 304 -
0:0:0:0:0:0:0:1 - - [19/Jan/2015:16:39:57 +0100] "GET /Website/res/css/jquery-ui.min.css HTTP/1.1" 304 -
0:0:0:0:0:0:0:1 - - [19/Jan/2015:16:39:57 +0100] "GET /Website/res/css/ourCss.css HTTP/1.1" 304 -
0:0:0:0:0:0:0:1 - - [19/Jan/2015:16:40:22 +0100] "GET /Website/kontakt.jsp HTTP/1.1" 200 2595
0:0:0:0:0:0:0:1 - - [19/Jan/2015:16:40:22 +0100] "GET /Website/res/js/jquery-1.11.1.min.js HTTP/1.1" 304 -
0:0:0:0:0:0:0:1 - - [19/Jan/2015:16:40:22 +0100] "GET /Website/res/css/ourCss.css HTTP/1.1" 304 -
0:0:0:0:0:0:0:1 - - [19/Jan/2015:16:40:22 +0100] "GET /Website/res/js/bootstrap.min.js HTTP/1.1" 304 -
0:0:0:0:0:0:0:1 - - [19/Jan/2015:16:40:22 +0100] "GET /Website/res/js/jquery-ui.min.js HTTP/1.1" 304 -
0:0:0:0:0:0:0:1 - - [19/Jan/2015:16:40:22 +0100] "GET /Website/res/css/bootstrap.min.css HTTP/1.1" 304 -
0:0:0:0:0:0:0:1 - - [19/Jan/2015:16:40:22 +0100] "GET /Website/res/css/jquery-ui.min.css HTTP/1.1" 304 -
0:0:0:0:0:0:0:1 - - [19/Jan/2015:16:40:27 +0100] "GET /Website/kontakt.jsp HTTP/1.1" 200 2595
0:0:0:0:0:0:0:1 - - [19/Jan/2015:16:40:27 +0100] "GET /Website/res/js/jquery-1.11.1.min.js HTTP/1.1" 304 -
0:0:0:0:0:0:0:1 - - [19/Jan/2015:16:40:27 +0100] "GET /Website/res/js/jquery-ui.min.js HTTP/1.1" 304 -
0:0:0:0:0:0:0:1 - - [19/Jan/2015:16:40:27 +0100] "GET /Website/res/js/bootstrap.min.js HTTP/1.1" 304 -
0:0:0:0:0:0:0:1 - - [19/Jan/2015:16:40:27 +0100] "GET /Website/res/css/bootstrap.min.css HTTP/1.1" 304 -
0:0:0:0:0:0:0:1 - - [19/Jan/2015:16:40:27 +0100] "GET /Website/res/css/jquery-ui.min.css HTTP/1.1" 304 -
0:0:0:0:0:0:0:1 - - [19/Jan/2015:16:40:27 +0100] "GET /Website/res/css/ourCss.css HTTP/1.1" 304 -
0:0:0:0:0:0:0:1 - - [19/Jan/2015:16:40:28 +0100] "GET /Website/kontakt.jsp HTTP/1.1" 200 2595
0:0:0:0:0:0:0:1 - - [19/Jan/2015:16:40:28 +0100] "GET /Website/res/js/jquery-ui.min.js HTTP/1.1" 304 -
0:0:0:0:0:0:0:1 - - [19/Jan/2015:16:40:28 +0100] "GET /Website/res/js/jquery-1.11.1.min.js HTTP/1.1" 304 -
0:0:0:0:0:0:0:1 - - [19/Jan/2015:16:40:28 +0100] "GET /Website/res/js/bootstrap.min.js HTTP/1.1" 304 -
0:0:0:0:0:0:0:1 - - [19/Jan/2015:16:40:28 +0100] "GET /Website/res/css/bootstrap.min.css HTTP/1.1" 304 -
0:0:0:0:0:0:0:1 - - [19/Jan/2015:16:40:28 +0100] "GET /Website/res/css/jquery-ui.min.css HTTP/1.1" 304 -
0:0:0:0:0:0:0:1 - - [19/Jan/2015:16:40:28 +0100] "GET /Website/res/css/ourCss.css HTTP/1.1" 304 -
0:0:0:0:0:0:0:1 - - [19/Jan/2015:16:40:35 +0100] "GET /Website/kontakt.jsp HTTP/1.1" 200 2597
0:0:0:0:0:0:0:1 - - [19/Jan/2015:16:40:35 +0100] "GET /Website/res/js/jquery-1.11.1.min.js HTTP/1.1" 304 -
0:0:0:0:0:0:0:1 - - [19/Jan/2015:16:40:35 +0100] "GET /Website/res/js/jquery-ui.min.js HTTP/1.1" 304 -
0:0:0:0:0:0:0:1 - - [19/Jan/2015:16:40:35 +0100] "GET /Website/res/js/bootstrap.min.js HTTP/1.1" 304 -
0:0:0:0:0:0:0:1 - - [19/Jan/2015:16:40:35 +0100] "GET /Website/res/css/bootstrap.min.css HTTP/1.1" 304 -
0:0:0:0:0:0:0:1 - - [19/Jan/2015:16:40:35 +0100] "GET /Website/res/css/jquery-ui.min.css HTTP/1.1" 304 -
0:0:0:0:0:0:0:1 - - [19/Jan/2015:16:40:35 +0100] "GET /Website/res/css/ourCss.css HTTP/1.1" 304 -
0:0:0:0:0:0:0:1 - - [19/Jan/2015:16:41:44 +0100] "GET /Website/kontakt.jsp HTTP/1.1" 200 2614
0:0:0:0:0:0:0:1 - - [19/Jan/2015:16:41:44 +0100] "GET /Website/res/js/jquery-1.11.1.min.js HTTP/1.1" 304 -
0:0:0:0:0:0:0:1 - - [19/Jan/2015:16:41:44 +0100] "GET /Website/res/js/bootstrap.min.js HTTP/1.1" 304 -
0:0:0:0:0:0:0:1 - - [19/Jan/2015:16:41:44 +0100] "GET /Website/res/js/jquery-ui.min.js HTTP/1.1" 304 -
0:0:0:0:0:0:0:1 - - [19/Jan/2015:16:41:44 +0100] "GET /Website/res/css/bootstrap.min.css HTTP/1.1" 304 -
0:0:0:0:0:0:0:1 - - [19/Jan/2015:16:41:44 +0100] "GET /Website/res/css/jquery-ui.min.css HTTP/1.1" 304 -
0:0:0:0:0:0:0:1 - - [19/Jan/2015:16:41:44 +0100] "GET /Website/res/css/ourCss.css HTTP/1.1" 200 1543
0:0:0:0:0:0:0:1 - - [19/Jan/2015:16:41:45 +0100] "GET /Website/kontakt.jsp HTTP/1.1" 200 2614
0:0:0:0:0:0:0:1 - - [19/Jan/2015:16:41:45 +0100] "GET /Website/res/js/jquery-1.11.1.min.js HTTP/1.1" 304 -
0:0:0:0:0:0:0:1 - - [19/Jan/2015:16:41:45 +0100] "GET /Website/res/js/jquery-ui.min.js HTTP/1.1" 304 -
0:0:0:0:0:0:0:1 - - [19/Jan/2015:16:41:45 +0100] "GET /Website/res/js/bootstrap.min.js HTTP/1.1" 304 -
0:0:0:0:0:0:0:1 - - [19/Jan/2015:16:41:45 +0100] "GET /Website/res/css/bootstrap.min.css HTTP/1.1" 304 -
0:0:0:0:0:0:0:1 - - [19/Jan/2015:16:41:45 +0100] "GET /Website/res/css/jquery-ui.min.css HTTP/1.1" 304 -
0:0:0:0:0:0:0:1 - - [19/Jan/2015:16:41:45 +0100] "GET /Website/res/css/ourCss.css HTTP/1.1" 304 -
0:0:0:0:0:0:0:1 - - [19/Jan/2015:16:41:56 +0100] "GET /Website/kontakt.jsp HTTP/1.1" 200 2614
0:0:0:0:0:0:0:1 - - [19/Jan/2015:16:41:56 +0100] "GET /Website/res/js/jquery-ui.min.js HTTP/1.1" 304 -
0:0:0:0:0:0:0:1 - - [19/Jan/2015:16:41:56 +0100] "GET /Website/res/js/jquery-1.11.1.min.js HTTP/1.1" 304 -
0:0:0:0:0:0:0:1 - - [19/Jan/2015:16:41:56 +0100] "GET /Website/res/js/bootstrap.min.js HTTP/1.1" 304 -
0:0:0:0:0:0:0:1 - - [19/Jan/2015:16:41:56 +0100] "GET /Website/res/css/bootstrap.min.css HTTP/1.1" 304 -
0:0:0:0:0:0:0:1 - - [19/Jan/2015:16:41:56 +0100] "GET /Website/res/css/jquery-ui.min.css HTTP/1.1" 304 -
0:0:0:0:0:0:0:1 - - [19/Jan/2015:16:41:56 +0100] "GET /Website/res/css/ourCss.css HTTP/1.1" 200 1545
0:0:0:0:0:0:0:1 - - [19/Jan/2015:16:42:04 +0100] "GET /Website/kontakt.jsp HTTP/1.1" 200 2614
0:0:0:0:0:0:0:1 - - [19/Jan/2015:16:42:04 +0100] "GET /Website/res/js/jquery-1.11.1.min.js HTTP/1.1" 304 -
0:0:0:0:0:0:0:1 - - [19/Jan/2015:16:42:04 +0100] "GET /Website/res/js/jquery-ui.min.js HTTP/1.1" 304 -
0:0:0:0:0:0:0:1 - - [19/Jan/2015:16:42:04 +0100] "GET /Website/res/js/bootstrap.min.js HTTP/1.1" 304 -
0:0:0:0:0:0:0:1 - - [19/Jan/2015:16:42:04 +0100] "GET /Website/res/css/bootstrap.min.css HTTP/1.1" 304 -
0:0:0:0:0:0:0:1 - - [19/Jan/2015:16:42:04 +0100] "GET /Website/res/css/jquery-ui.min.css HTTP/1.1" 304 -
0:0:0:0:0:0:0:1 - - [19/Jan/2015:16:42:04 +0100] "GET /Website/res/css/ourCss.css HTTP/1.1" 200 1545
0:0:0:0:0:0:0:1 - - [19/Jan/2015:16:42:20 +0100] "GET /Website/kontakt.jsp HTTP/1.1" 200 2614
0:0:0:0:0:0:0:1 - - [19/Jan/2015:16:42:20 +0100] "GET /Website/res/js/jquery-1.11.1.min.js HTTP/1.1" 304 -
0:0:0:0:0:0:0:1 - - [19/Jan/2015:16:42:20 +0100] "GET /Website/res/js/jquery-ui.min.js HTTP/1.1" 304 -
0:0:0:0:0:0:0:1 - - [19/Jan/2015:16:42:20 +0100] "GET /Website/res/js/bootstrap.min.js HTTP/1.1" 304 -
0:0:0:0:0:0:0:1 - - [19/Jan/2015:16:42:20 +0100] "GET /Website/res/css/bootstrap.min.css HTTP/1.1" 304 -
0:0:0:0:0:0:0:1 - - [19/Jan/2015:16:42:20 +0100] "GET /Website/res/css/jquery-ui.min.css HTTP/1.1" 304 -
0:0:0:0:0:0:0:1 - - [19/Jan/2015:16:42:20 +0100] "GET /Website/res/css/ourCss.css HTTP/1.1" 200 1545
0:0:0:0:0:0:0:1 - - [19/Jan/2015:16:42:27 +0100] "GET /Website/kontakt.jsp HTTP/1.1" 200 2614
0:0:0:0:0:0:0:1 - - [19/Jan/2015:16:42:27 +0100] "GET /Website/res/js/jquery-1.11.1.min.js HTTP/1.1" 304 -
0:0:0:0:0:0:0:1 - - [19/Jan/2015:16:42:27 +0100] "GET /Website/res/js/jquery-ui.min.js HTTP/1.1" 304 -
0:0:0:0:0:0:0:1 - - [19/Jan/2015:16:42:27 +0100] "GET /Website/res/js/bootstrap.min.js HTTP/1.1" 304 -
0:0:0:0:0:0:0:1 - - [19/Jan/2015:16:42:27 +0100] "GET /Website/res/css/bootstrap.min.css HTTP/1.1" 304 -
0:0:0:0:0:0:0:1 - - [19/Jan/2015:16:42:27 +0100] "GET /Website/res/css/jquery-ui.min.css HTTP/1.1" 304 -
0:0:0:0:0:0:0:1 - - [19/Jan/2015:16:42:27 +0100] "GET /Website/res/css/ourCss.css HTTP/1.1" 200 1545
0:0:0:0:0:0:0:1 - - [19/Jan/2015:16:43:06 +0100] "GET /Website/kontakt.jsp HTTP/1.1" 200 2947
0:0:0:0:0:0:0:1 - - [19/Jan/2015:16:43:06 +0100] "GET /Website/res/js/jquery-1.11.1.min.js HTTP/1.1" 304 -
0:0:0:0:0:0:0:1 - - [19/Jan/2015:16:43:06 +0100] "GET /Website/res/css/jquery-ui.min.css HTTP/1.1" 304 -
0:0:0:0:0:0:0:1 - - [19/Jan/2015:16:43:06 +0100] "GET /Website/res/css/bootstrap.min.css HTTP/1.1" 304 -
0:0:0:0:0:0:0:1 - - [19/Jan/2015:16:43:06 +0100] "GET /Website/res/css/ourCss.css HTTP/1.1" 304 -
0:0:0:0:0:0:0:1 - - [19/Jan/2015:16:43:06 +0100] "GET /Website/res/js/jquery-ui.min.js HTTP/1.1" 304 -
0:0:0:0:0:0:0:1 - - [19/Jan/2015:16:43:06 +0100] "GET /Website/res/js/bootstrap.min.js HTTP/1.1" 304 -
0:0:0:0:0:0:0:1 - - [19/Jan/2015:16:43:30 +0100] "GET /Website/kontakt.jsp HTTP/1.1" 200 2931
0:0:0:0:0:0:0:1 - - [19/Jan/2015:16:43:30 +0100] "GET /Website/res/js/jquery-1.11.1.min.js HTTP/1.1" 304 -
0:0:0:0:0:0:0:1 - - [19/Jan/2015:16:43:30 +0100] "GET /Website/res/js/bootstrap.min.js HTTP/1.1" 304 -
0:0:0:0:0:0:0:1 - - [19/Jan/2015:16:43:30 +0100] "GET /Website/res/css/jquery-ui.min.css HTTP/1.1" 304 -
0:0:0:0:0:0:0:1 - - [19/Jan/2015:16:43:30 +0100] "GET /Website/res/css/bootstrap.min.css HTTP/1.1" 304 -
0:0:0:0:0:0:0:1 - - [19/Jan/2015:16:43:30 +0100] "GET /Website/res/css/ourCss.css HTTP/1.1" 304 -
0:0:0:0:0:0:0:1 - - [19/Jan/2015:16:43:30 +0100] "GET /Website/res/js/jquery-ui.min.js HTTP/1.1" 304 -
0:0:0:0:0:0:0:1 - - [19/Jan/2015:16:44:03 +0100] "GET /Website/kontakt.jsp HTTP/1.1" 200 2948
0:0:0:0:0:0:0:1 - - [19/Jan/2015:16:44:03 +0100] "GET /Website/res/js/jquery-1.11.1.min.js HTTP/1.1" 304 -
0:0:0:0:0:0:0:1 - - [19/Jan/2015:16:44:03 +0100] "GET /Website/res/css/jquery-ui.min.css HTTP/1.1" 304 -
0:0:0:0:0:0:0:1 - - [19/Jan/2015:16:44:03 +0100] "GET /Website/res/js/bootstrap.min.js HTTP/1.1" 304 -
0:0:0:0:0:0:0:1 - - [19/Jan/2015:16:44:03 +0100] "GET /Website/res/css/ourCss.css HTTP/1.1" 304 -
0:0:0:0:0:0:0:1 - - [19/Jan/2015:16:44:03 +0100] "GET /Website/res/css/bootstrap.min.css HTTP/1.1" 304 -
0:0:0:0:0:0:0:1 - - [19/Jan/2015:16:44:03 +0100] "GET /Website/res/js/jquery-ui.min.js HTTP/1.1" 304 -
