127.0.0.1 - - [12/Jan/2015:13:43:30 +0100] "GET / HTTP/1.1" 404 951
0:0:0:0:0:0:0:1 - - [12/Jan/2015:13:43:32 +0100] "GET /Website/index.jsp HTTP/1.1" 200 3116
0:0:0:0:0:0:0:1 - - [12/Jan/2015:13:43:32 +0100] "GET /Website/res/js/jquery-1.11.1.min.js HTTP/1.1" 200 95786
0:0:0:0:0:0:0:1 - - [12/Jan/2015:13:43:32 +0100] "GET /Website/res/css/ourCss.css HTTP/1.1" 200 1465
0:0:0:0:0:0:0:1 - - [12/Jan/2015:13:43:32 +0100] "GET /Website/res/js/bootstrap.min.js HTTP/1.1" 200 34653
0:0:0:0:0:0:0:1 - - [12/Jan/2015:13:43:32 +0100] "GET /Website/res/css/jquery-ui.min.css HTTP/1.1" 200 30163
0:0:0:0:0:0:0:1 - - [12/Jan/2015:13:43:32 +0100] "GET /Website/res/css/bootstrap.min.css HTTP/1.1" 200 114011
0:0:0:0:0:0:0:1 - - [12/Jan/2015:13:43:32 +0100] "GET /Website/res/js/jquery-ui.min.js HTTP/1.1" 200 239564
0:0:0:0:0:0:0:1 - - [12/Jan/2015:13:43:32 +0100] "GET /Website/res/img/collage.jpg HTTP/1.1" 200 143469
0:0:0:0:0:0:0:1 - - [12/Jan/2015:13:43:32 +0100] "GET /Website/res/fonts/glyphicons-halflings-regular.woff HTTP/1.1" 200 23320
0:0:0:0:0:0:0:1 - - [12/Jan/2015:13:43:32 +0100] "GET /favicon.ico HTTP/1.1" 404 973
0:0:0:0:0:0:0:1 - - [12/Jan/2015:13:43:35 +0100] "GET /Website/list.jsp HTTP/1.1" 200 7040
0:0:0:0:0:0:0:1 - - [12/Jan/2015:13:43:35 +0100] "GET /Website/res/img/newyork.jpg HTTP/1.1" 200 353824
0:0:0:0:0:0:0:1 - - [12/Jan/2015:13:43:35 +0100] "GET /Website/res/img/paris.jpg HTTP/1.1" 200 767205
0:0:0:0:0:0:0:1 - - [12/Jan/2015:13:43:42 +0100] "GET /Website/login.jsp HTTP/1.1" 200 5576
0:0:0:0:0:0:0:1 - - [12/Jan/2015:13:43:42 +0100] "GET /Website/res/img/loginIMG.png HTTP/1.1" 200 5941
0:0:0:0:0:0:0:1 - - [12/Jan/2015:13:43:45 +0100] "GET /Website/index.jsp HTTP/1.1" 200 3116
0:0:0:0:0:0:0:1 - - [12/Jan/2015:13:44:03 +0100] "GET /Website/list.jsp HTTP/1.1" 200 7040
0:0:0:0:0:0:0:1 - - [12/Jan/2015:13:44:31 +0100] "GET /Website/index.jsp HTTP/1.1" 200 3116
