127.0.0.1 - - [16/Jan/2015:16:20:07 +0100] "GET / HTTP/1.1" 404 951
0:0:0:0:0:0:0:1 - - [16/Jan/2015:16:20:09 +0100] "GET /Website/index.jsp HTTP/1.1" 200 4788
0:0:0:0:0:0:0:1 - - [16/Jan/2015:16:20:09 +0100] "GET /Website/res/js/jquery-1.11.1.min.js HTTP/1.1" 200 95786
0:0:0:0:0:0:0:1 - - [16/Jan/2015:16:20:09 +0100] "GET /Website/res/css/ourCss.css HTTP/1.1" 200 1465
0:0:0:0:0:0:0:1 - - [16/Jan/2015:16:20:09 +0100] "GET /Website/res/css/jquery-ui.min.css HTTP/1.1" 200 30163
0:0:0:0:0:0:0:1 - - [16/Jan/2015:16:20:09 +0100] "GET /Website/res/js/bootstrap.min.js HTTP/1.1" 200 34653
0:0:0:0:0:0:0:1 - - [16/Jan/2015:16:20:09 +0100] "GET /Website/res/css/bootstrap.min.css HTTP/1.1" 200 114011
0:0:0:0:0:0:0:1 - - [16/Jan/2015:16:20:09 +0100] "GET /Website/res/js/jquery-ui.min.js HTTP/1.1" 200 239564
0:0:0:0:0:0:0:1 - - [16/Jan/2015:16:20:09 +0100] "GET /Website/res/img/collage.jpg HTTP/1.1" 200 143469
0:0:0:0:0:0:0:1 - - [16/Jan/2015:16:20:09 +0100] "GET /Website/res/fonts/glyphicons-halflings-regular.woff HTTP/1.1" 200 23320
0:0:0:0:0:0:0:1 - - [16/Jan/2015:16:20:09 +0100] "GET /favicon.ico HTTP/1.1" 404 973
0:0:0:0:0:0:0:1 - - [16/Jan/2015:16:21:22 +0100] "GET /Website/index.jsp HTTP/1.1" 200 4626
0:0:0:0:0:0:0:1 - - [16/Jan/2015:16:21:22 +0100] "GET /Website/res/js/jquery-1.11.1.min.js HTTP/1.1" 304 -
0:0:0:0:0:0:0:1 - - [16/Jan/2015:16:21:22 +0100] "GET /Website/res/css/jquery-ui.min.css HTTP/1.1" 304 -
0:0:0:0:0:0:0:1 - - [16/Jan/2015:16:21:22 +0100] "GET /Website/res/css/bootstrap.min.css HTTP/1.1" 304 -
0:0:0:0:0:0:0:1 - - [16/Jan/2015:16:21:22 +0100] "GET /Website/res/js/bootstrap.min.js HTTP/1.1" 304 -
0:0:0:0:0:0:0:1 - - [16/Jan/2015:16:21:22 +0100] "GET /Website/res/js/jquery-ui.min.js HTTP/1.1" 304 -
0:0:0:0:0:0:0:1 - - [16/Jan/2015:16:21:22 +0100] "GET /Website/res/css/ourCss.css HTTP/1.1" 304 -
0:0:0:0:0:0:0:1 - - [16/Jan/2015:16:21:22 +0100] "GET /Website/res/img/collage.jpg HTTP/1.1" 304 -
0:0:0:0:0:0:0:1 - - [16/Jan/2015:16:22:20 +0100] "GET /Website/login.jsp HTTP/1.1" 200 5639
0:0:0:0:0:0:0:1 - - [16/Jan/2015:16:22:20 +0100] "GET /Website/res/img/loginIMG.png HTTP/1.1" 200 5941
0:0:0:0:0:0:0:1 - - [16/Jan/2015:16:23:29 +0100] "GET /Website/listTop5.jsp HTTP/1.1" 200 7096
0:0:0:0:0:0:0:1 - - [16/Jan/2015:16:23:29 +0100] "GET /Website/res/img/newyork.jpg HTTP/1.1" 200 353824
0:0:0:0:0:0:0:1 - - [16/Jan/2015:16:23:29 +0100] "GET /Website/res/img/paris.jpg HTTP/1.1" 200 767205
0:0:0:0:0:0:0:1 - - [16/Jan/2015:16:26:23 +0100] "GET /Website/listTop5.jsp HTTP/1.1" 200 7113
0:0:0:0:0:0:0:1 - - [16/Jan/2015:16:26:23 +0100] "GET /Website/res/js/jquery-1.11.1.min.js HTTP/1.1" 304 -
0:0:0:0:0:0:0:1 - - [16/Jan/2015:16:26:23 +0100] "GET /Website/res/js/bootstrap.min.js HTTP/1.1" 304 -
0:0:0:0:0:0:0:1 - - [16/Jan/2015:16:26:23 +0100] "GET /Website/res/css/jquery-ui.min.css HTTP/1.1" 304 -
0:0:0:0:0:0:0:1 - - [16/Jan/2015:16:26:23 +0100] "GET /Website/res/css/ourCss.css HTTP/1.1" 304 -
0:0:0:0:0:0:0:1 - - [16/Jan/2015:16:26:23 +0100] "GET /Website/res/js/jquery-ui.min.js HTTP/1.1" 304 -
0:0:0:0:0:0:0:1 - - [16/Jan/2015:16:26:23 +0100] "GET /Website/res/css/bootstrap.min.css HTTP/1.1" 304 -
0:0:0:0:0:0:0:1 - - [16/Jan/2015:16:26:23 +0100] "GET /Website/res/img/newyork.jpg HTTP/1.1" 304 -
0:0:0:0:0:0:0:1 - - [16/Jan/2015:16:26:23 +0100] "GET /Website/res/img/paris.jpg HTTP/1.1" 304 -
0:0:0:0:0:0:0:1 - - [16/Jan/2015:16:26:24 +0100] "GET /Website/listAlle HTTP/1.1" 404 983
0:0:0:0:0:0:0:1 - - [16/Jan/2015:16:26:54 +0100] "GET /Website/listTop5.jsp HTTP/1.1" 200 7121
0:0:0:0:0:0:0:1 - - [16/Jan/2015:16:26:54 +0100] "GET /Website/res/js/jquery-1.11.1.min.js HTTP/1.1" 304 -
0:0:0:0:0:0:0:1 - - [16/Jan/2015:16:26:54 +0100] "GET /Website/res/css/ourCss.css HTTP/1.1" 304 -
0:0:0:0:0:0:0:1 - - [16/Jan/2015:16:26:54 +0100] "GET /Website/res/js/jquery-ui.min.js HTTP/1.1" 304 -
0:0:0:0:0:0:0:1 - - [16/Jan/2015:16:26:54 +0100] "GET /Website/res/css/bootstrap.min.css HTTP/1.1" 304 -
0:0:0:0:0:0:0:1 - - [16/Jan/2015:16:26:54 +0100] "GET /Website/res/css/jquery-ui.min.css HTTP/1.1" 304 -
0:0:0:0:0:0:0:1 - - [16/Jan/2015:16:26:54 +0100] "GET /Website/res/js/bootstrap.min.js HTTP/1.1" 304 -
0:0:0:0:0:0:0:1 - - [16/Jan/2015:16:26:54 +0100] "GET /Website/res/img/newyork.jpg HTTP/1.1" 304 -
0:0:0:0:0:0:0:1 - - [16/Jan/2015:16:26:54 +0100] "GET /Website/res/img/paris.jpg HTTP/1.1" 304 -
0:0:0:0:0:0:0:1 - - [16/Jan/2015:16:26:55 +0100] "GET /Website/listAlle.jsp HTTP/1.1" 200 7126
0:0:0:0:0:0:0:1 - - [16/Jan/2015:16:27:06 +0100] "GET /Website/listTop5.jsp HTTP/1.1" 200 7121
0:0:0:0:0:0:0:1 - - [16/Jan/2015:16:27:09 +0100] "GET /Website/listAlle.jsp HTTP/1.1" 200 7126
0:0:0:0:0:0:0:1 - - [16/Jan/2015:16:27:41 +0100] "GET /Website/listAlle.jsp HTTP/1.1" 200 7126
0:0:0:0:0:0:0:1 - - [16/Jan/2015:16:27:41 +0100] "GET /Website/res/js/jquery-1.11.1.min.js HTTP/1.1" 304 -
0:0:0:0:0:0:0:1 - - [16/Jan/2015:16:27:41 +0100] "GET /Website/res/js/jquery-ui.min.js HTTP/1.1" 304 -
0:0:0:0:0:0:0:1 - - [16/Jan/2015:16:27:41 +0100] "GET /Website/res/css/ourCss.css HTTP/1.1" 304 -
0:0:0:0:0:0:0:1 - - [16/Jan/2015:16:27:41 +0100] "GET /Website/res/js/bootstrap.min.js HTTP/1.1" 304 -
0:0:0:0:0:0:0:1 - - [16/Jan/2015:16:27:41 +0100] "GET /Website/res/css/jquery-ui.min.css HTTP/1.1" 304 -
0:0:0:0:0:0:0:1 - - [16/Jan/2015:16:27:41 +0100] "GET /Website/res/css/bootstrap.min.css HTTP/1.1" 304 -
0:0:0:0:0:0:0:1 - - [16/Jan/2015:16:27:41 +0100] "GET /Website/res/img/newyork.jpg HTTP/1.1" 304 -
0:0:0:0:0:0:0:1 - - [16/Jan/2015:16:27:41 +0100] "GET /Website/res/img/paris.jpg HTTP/1.1" 304 -
0:0:0:0:0:0:0:1 - - [16/Jan/2015:16:27:43 +0100] "GET /Website/listTop5.jsp HTTP/1.1" 200 7121
0:0:0:0:0:0:0:1 - - [16/Jan/2015:16:28:44 +0100] "GET /Website/listTop5.jsp HTTP/1.1" 200 7129
0:0:0:0:0:0:0:1 - - [16/Jan/2015:16:28:44 +0100] "GET /Website/res/js/jquery-1.11.1.min.js HTTP/1.1" 304 -
0:0:0:0:0:0:0:1 - - [16/Jan/2015:16:28:44 +0100] "GET /Website/res/js/bootstrap.min.js HTTP/1.1" 304 -
0:0:0:0:0:0:0:1 - - [16/Jan/2015:16:28:44 +0100] "GET /Website/res/css/bootstrap.min.css HTTP/1.1" 304 -
0:0:0:0:0:0:0:1 - - [16/Jan/2015:16:28:44 +0100] "GET /Website/res/css/jquery-ui.min.css HTTP/1.1" 304 -
0:0:0:0:0:0:0:1 - - [16/Jan/2015:16:28:44 +0100] "GET /Website/res/css/ourCss.css HTTP/1.1" 304 -
0:0:0:0:0:0:0:1 - - [16/Jan/2015:16:28:44 +0100] "GET /Website/res/js/jquery-ui.min.js HTTP/1.1" 304 -
0:0:0:0:0:0:0:1 - - [16/Jan/2015:16:28:44 +0100] "GET /Website/res/img/paris.jpg HTTP/1.1" 304 -
0:0:0:0:0:0:0:1 - - [16/Jan/2015:16:28:44 +0100] "GET /Website/res/img/newyork.jpg HTTP/1.1" 304 -
0:0:0:0:0:0:0:1 - - [16/Jan/2015:16:28:45 +0100] "GET /Website/listAlle.jsp HTTP/1.1" 200 7134
0:0:0:0:0:0:0:1 - - [16/Jan/2015:16:28:47 +0100] "GET /Website/listTop5.jsp HTTP/1.1" 200 7129
0:0:0:0:0:0:0:1 - - [16/Jan/2015:16:28:48 +0100] "GET /Website/listAlle.jsp HTTP/1.1" 200 7134
0:0:0:0:0:0:0:1 - - [16/Jan/2015:16:28:54 +0100] "GET /Website/listTop5.jsp HTTP/1.1" 200 7129
0:0:0:0:0:0:0:1 - - [16/Jan/2015:16:28:55 +0100] "GET /Website/listAlle.jsp HTTP/1.1" 200 7134
0:0:0:0:0:0:0:1 - - [16/Jan/2015:16:29:56 +0100] "GET /Website/listAlle.jsp HTTP/1.1" 200 12227
0:0:0:0:0:0:0:1 - - [16/Jan/2015:16:29:56 +0100] "GET /Website/res/js/jquery-1.11.1.min.js HTTP/1.1" 304 -
0:0:0:0:0:0:0:1 - - [16/Jan/2015:16:29:56 +0100] "GET /Website/res/css/jquery-ui.min.css HTTP/1.1" 304 -
0:0:0:0:0:0:0:1 - - [16/Jan/2015:16:29:56 +0100] "GET /Website/res/js/bootstrap.min.js HTTP/1.1" 304 -
0:0:0:0:0:0:0:1 - - [16/Jan/2015:16:29:56 +0100] "GET /Website/res/css/bootstrap.min.css HTTP/1.1" 304 -
0:0:0:0:0:0:0:1 - - [16/Jan/2015:16:29:56 +0100] "GET /Website/res/js/jquery-ui.min.js HTTP/1.1" 304 -
0:0:0:0:0:0:0:1 - - [16/Jan/2015:16:29:56 +0100] "GET /Website/res/css/ourCss.css HTTP/1.1" 304 -
0:0:0:0:0:0:0:1 - - [16/Jan/2015:16:29:56 +0100] "GET /Website/res/img/paris.jpg HTTP/1.1" 304 -
0:0:0:0:0:0:0:1 - - [16/Jan/2015:16:29:56 +0100] "GET /Website/res/img/newyork.jpg HTTP/1.1" 304 -
0:0:0:0:0:0:0:1 - - [16/Jan/2015:16:30:55 +0100] "GET /Website/listAlle.jsp HTTP/1.1" 200 11239
0:0:0:0:0:0:0:1 - - [16/Jan/2015:16:30:55 +0100] "GET /Website/res/js/jquery-1.11.1.min.js HTTP/1.1" 304 -
0:0:0:0:0:0:0:1 - - [16/Jan/2015:16:30:55 +0100] "GET /Website/res/css/jquery-ui.min.css HTTP/1.1" 304 -
0:0:0:0:0:0:0:1 - - [16/Jan/2015:16:30:55 +0100] "GET /Website/res/js/bootstrap.min.js HTTP/1.1" 304 -
0:0:0:0:0:0:0:1 - - [16/Jan/2015:16:30:55 +0100] "GET /Website/res/css/ourCss.css HTTP/1.1" 304 -
0:0:0:0:0:0:0:1 - - [16/Jan/2015:16:30:55 +0100] "GET /Website/res/css/bootstrap.min.css HTTP/1.1" 304 -
0:0:0:0:0:0:0:1 - - [16/Jan/2015:16:30:55 +0100] "GET /Website/res/js/jquery-ui.min.js HTTP/1.1" 304 -
0:0:0:0:0:0:0:1 - - [16/Jan/2015:16:30:55 +0100] "GET /Website/res/img/newyork.jpg HTTP/1.1" 304 -
0:0:0:0:0:0:0:1 - - [16/Jan/2015:16:30:55 +0100] "GET /Website/res/img/paris.jpg HTTP/1.1" 304 -
0:0:0:0:0:0:0:1 - - [16/Jan/2015:16:31:02 +0100] "GET /Website/listTop5.jsp HTTP/1.1" 200 7129
0:0:0:0:0:0:0:1 - - [16/Jan/2015:16:31:03 +0100] "GET /Website/listAlle.jsp HTTP/1.1" 200 11239
0:0:0:0:0:0:0:1 - - [16/Jan/2015:16:34:54 +0100] "GET /Website/listAlle.jsp HTTP/1.1" 200 11183
0:0:0:0:0:0:0:1 - - [16/Jan/2015:16:34:54 +0100] "GET /Website/res/js/jquery-1.11.1.min.js HTTP/1.1" 304 -
0:0:0:0:0:0:0:1 - - [16/Jan/2015:16:34:54 +0100] "GET /Website/res/js/jquery-ui.min.js HTTP/1.1" 304 -
0:0:0:0:0:0:0:1 - - [16/Jan/2015:16:34:54 +0100] "GET /Website/res/css/jquery-ui.min.css HTTP/1.1" 304 -
0:0:0:0:0:0:0:1 - - [16/Jan/2015:16:34:54 +0100] "GET /Website/res/css/bootstrap.min.css HTTP/1.1" 304 -
0:0:0:0:0:0:0:1 - - [16/Jan/2015:16:34:54 +0100] "GET /Website/res/js/bootstrap.min.js HTTP/1.1" 304 -
0:0:0:0:0:0:0:1 - - [16/Jan/2015:16:34:54 +0100] "GET /Website/res/css/ourCss.css HTTP/1.1" 200 1493
0:0:0:0:0:0:0:1 - - [16/Jan/2015:16:34:54 +0100] "GET /Website/res/img/newyork.jpg HTTP/1.1" 304 -
0:0:0:0:0:0:0:1 - - [16/Jan/2015:16:34:54 +0100] "GET /Website/res/img/paris.jpg HTTP/1.1" 304 -
0:0:0:0:0:0:0:1 - - [16/Jan/2015:16:34:57 +0100] "GET /Website/listTop5.jsp HTTP/1.1" 200 7086
0:0:0:0:0:0:0:1 - - [16/Jan/2015:16:34:57 +0100] "GET /Website/res/css/ourCss.css HTTP/1.1" 304 -
0:0:0:0:0:0:0:1 - - [16/Jan/2015:16:34:58 +0100] "GET /Website/listAlle.jsp HTTP/1.1" 200 11183
0:0:0:0:0:0:0:1 - - [16/Jan/2015:16:34:58 +0100] "GET /Website/res/css/ourCss.css HTTP/1.1" 304 -
0:0:0:0:0:0:0:1 - - [16/Jan/2015:16:35:00 +0100] "GET /Website/listTop5.jsp HTTP/1.1" 200 7086
0:0:0:0:0:0:0:1 - - [16/Jan/2015:16:35:00 +0100] "GET /Website/res/css/ourCss.css HTTP/1.1" 304 -
0:0:0:0:0:0:0:1 - - [16/Jan/2015:16:35:03 +0100] "GET /Website/listAlle.jsp HTTP/1.1" 200 11183
0:0:0:0:0:0:0:1 - - [16/Jan/2015:16:35:03 +0100] "GET /Website/res/css/ourCss.css HTTP/1.1" 304 -
0:0:0:0:0:0:0:1 - - [16/Jan/2015:16:35:04 +0100] "GET /Website/listTop5.jsp HTTP/1.1" 200 7086
0:0:0:0:0:0:0:1 - - [16/Jan/2015:16:35:17 +0100] "GET /Website/listTop5.jsp HTTP/1.1" 200 7086
0:0:0:0:0:0:0:1 - - [16/Jan/2015:16:35:17 +0100] "GET /Website/res/js/jquery-1.11.1.min.js HTTP/1.1" 304 -
0:0:0:0:0:0:0:1 - - [16/Jan/2015:16:35:17 +0100] "GET /Website/res/js/bootstrap.min.js HTTP/1.1" 304 -
0:0:0:0:0:0:0:1 - - [16/Jan/2015:16:35:17 +0100] "GET /Website/res/js/jquery-ui.min.js HTTP/1.1" 304 -
0:0:0:0:0:0:0:1 - - [16/Jan/2015:16:35:17 +0100] "GET /Website/res/css/bootstrap.min.css HTTP/1.1" 304 -
0:0:0:0:0:0:0:1 - - [16/Jan/2015:16:35:17 +0100] "GET /Website/res/css/ourCss.css HTTP/1.1" 200 1514
0:0:0:0:0:0:0:1 - - [16/Jan/2015:16:35:17 +0100] "GET /Website/res/css/jquery-ui.min.css HTTP/1.1" 304 -
0:0:0:0:0:0:0:1 - - [16/Jan/2015:16:35:17 +0100] "GET /Website/res/img/paris.jpg HTTP/1.1" 304 -
0:0:0:0:0:0:0:1 - - [16/Jan/2015:16:35:17 +0100] "GET /Website/res/img/newyork.jpg HTTP/1.1" 304 -
0:0:0:0:0:0:0:1 - - [16/Jan/2015:16:35:21 +0100] "GET /Website/listAlle.jsp HTTP/1.1" 200 11183
0:0:0:0:0:0:0:1 - - [16/Jan/2015:16:35:21 +0100] "GET /Website/res/css/ourCss.css HTTP/1.1" 304 -
0:0:0:0:0:0:0:1 - - [16/Jan/2015:16:35:23 +0100] "GET /Website/listTop5.jsp HTTP/1.1" 200 7086
0:0:0:0:0:0:0:1 - - [16/Jan/2015:16:35:23 +0100] "GET /Website/res/css/ourCss.css HTTP/1.1" 304 -
0:0:0:0:0:0:0:1 - - [16/Jan/2015:16:35:27 +0100] "GET /Website/listAlle.jsp HTTP/1.1" 200 11183
0:0:0:0:0:0:0:1 - - [16/Jan/2015:16:35:27 +0100] "GET /Website/res/css/ourCss.css HTTP/1.1" 304 -
0:0:0:0:0:0:0:1 - - [16/Jan/2015:16:35:47 +0100] "GET /Website/listTop5.jsp HTTP/1.1" 200 7086
0:0:0:0:0:0:0:1 - - [16/Jan/2015:16:35:47 +0100] "GET /Website/res/css/ourCss.css HTTP/1.1" 304 -
0:0:0:0:0:0:0:1 - - [16/Jan/2015:16:36:00 +0100] "GET /Website/listAlle.jsp HTTP/1.1" 200 11183
0:0:0:0:0:0:0:1 - - [16/Jan/2015:16:36:00 +0100] "GET /Website/res/css/ourCss.css HTTP/1.1" 304 -
0:0:0:0:0:0:0:1 - - [16/Jan/2015:16:36:01 +0100] "GET /Website/listTop5.jsp HTTP/1.1" 200 7086
0:0:0:0:0:0:0:1 - - [16/Jan/2015:16:36:03 +0100] "GET /Website/listAlle.jsp HTTP/1.1" 200 11183
0:0:0:0:0:0:0:1 - - [16/Jan/2015:16:37:11 +0100] "GET /Website/listAlle.jsp HTTP/1.1" 200 11150
0:0:0:0:0:0:0:1 - - [16/Jan/2015:16:37:11 +0100] "GET /Website/res/js/jquery-1.11.1.min.js HTTP/1.1" 304 -
0:0:0:0:0:0:0:1 - - [16/Jan/2015:16:37:11 +0100] "GET /Website/res/css/bootstrap.min.css HTTP/1.1" 304 -
0:0:0:0:0:0:0:1 - - [16/Jan/2015:16:37:11 +0100] "GET /Website/res/css/jquery-ui.min.css HTTP/1.1" 304 -
0:0:0:0:0:0:0:1 - - [16/Jan/2015:16:37:11 +0100] "GET /Website/res/js/bootstrap.min.js HTTP/1.1" 304 -
0:0:0:0:0:0:0:1 - - [16/Jan/2015:16:37:11 +0100] "GET /Website/res/css/ourCss.css HTTP/1.1" 304 -
0:0:0:0:0:0:0:1 - - [16/Jan/2015:16:37:11 +0100] "GET /Website/res/js/jquery-ui.min.js HTTP/1.1" 304 -
0:0:0:0:0:0:0:1 - - [16/Jan/2015:16:37:11 +0100] "GET /Website/res/img/newyork.jpg HTTP/1.1" 304 -
0:0:0:0:0:0:0:1 - - [16/Jan/2015:16:37:11 +0100] "GET /Website/res/img/paris.jpg HTTP/1.1" 304 -
0:0:0:0:0:0:0:1 - - [16/Jan/2015:16:37:12 +0100] "GET /Website/listAlle.jsp HTTP/1.1" 200 11150
0:0:0:0:0:0:0:1 - - [16/Jan/2015:16:37:12 +0100] "GET /Website/res/js/jquery-1.11.1.min.js HTTP/1.1" 304 -
0:0:0:0:0:0:0:1 - - [16/Jan/2015:16:37:12 +0100] "GET /Website/res/js/jquery-ui.min.js HTTP/1.1" 304 -
0:0:0:0:0:0:0:1 - - [16/Jan/2015:16:37:12 +0100] "GET /Website/res/js/bootstrap.min.js HTTP/1.1" 304 -
0:0:0:0:0:0:0:1 - - [16/Jan/2015:16:37:12 +0100] "GET /Website/res/css/bootstrap.min.css HTTP/1.1" 304 -
0:0:0:0:0:0:0:1 - - [16/Jan/2015:16:37:12 +0100] "GET /Website/res/css/jquery-ui.min.css HTTP/1.1" 304 -
0:0:0:0:0:0:0:1 - - [16/Jan/2015:16:37:12 +0100] "GET /Website/res/css/ourCss.css HTTP/1.1" 304 -
0:0:0:0:0:0:0:1 - - [16/Jan/2015:16:37:12 +0100] "GET /Website/res/img/newyork.jpg HTTP/1.1" 304 -
0:0:0:0:0:0:0:1 - - [16/Jan/2015:16:37:12 +0100] "GET /Website/res/img/paris.jpg HTTP/1.1" 304 -
0:0:0:0:0:0:0:1 - - [16/Jan/2015:16:37:13 +0100] "GET /Website/listTop5.jsp HTTP/1.1" 200 7086
0:0:0:0:0:0:0:1 - - [16/Jan/2015:16:37:16 +0100] "GET /Website/listAlle.jsp HTTP/1.1" 200 11150
0:0:0:0:0:0:0:1 - - [16/Jan/2015:16:37:18 +0100] "GET /Website/listTop5.jsp HTTP/1.1" 200 7086
0:0:0:0:0:0:0:1 - - [16/Jan/2015:16:37:21 +0100] "GET /Website/listAlle.jsp HTTP/1.1" 200 11150
0:0:0:0:0:0:0:1 - - [16/Jan/2015:16:37:25 +0100] "GET /Website/listTop5.jsp HTTP/1.1" 200 7086
0:0:0:0:0:0:0:1 - - [16/Jan/2015:16:37:25 +0100] "GET /Website/res/css/ourCss.css HTTP/1.1" 304 -
0:0:0:0:0:0:0:1 - - [16/Jan/2015:16:37:37 +0100] "GET /Website/index.jsp HTTP/1.1" 200 4585
0:0:0:0:0:0:0:1 - - [16/Jan/2015:16:37:41 +0100] "GET /Website/listTop5.jsp HTTP/1.1" 200 7086
0:0:0:0:0:0:0:1 - - [16/Jan/2015:16:37:41 +0100] "GET /Website/res/css/ourCss.css HTTP/1.1" 304 -
0:0:0:0:0:0:0:1 - - [16/Jan/2015:16:37:41 +0100] "GET /Website/login.jsp HTTP/1.1" 200 5639
0:0:0:0:0:0:0:1 - - [16/Jan/2015:16:37:53 +0100] "GET /Website/listTop5.jsp HTTP/1.1" 200 7086
0:0:0:0:0:0:0:1 - - [16/Jan/2015:16:39:00 +0100] "GET /Website/login.jsp HTTP/1.1" 200 5639
0:0:0:0:0:0:0:1 - - [16/Jan/2015:16:39:00 +0100] "GET /Website/res/css/ourCss.css HTTP/1.1" 304 -
0:0:0:0:0:0:0:1 - - [16/Jan/2015:16:39:03 +0100] "GET /Website/listTop5.jsp HTTP/1.1" 200 7086
0:0:0:0:0:0:0:1 - - [16/Jan/2015:16:39:04 +0100] "GET /Website/index.jsp HTTP/1.1" 200 4585
0:0:0:0:0:0:0:1 - - [16/Jan/2015:16:39:06 +0100] "GET /Website/login.jsp HTTP/1.1" 200 5639
0:0:0:0:0:0:0:1 - - [16/Jan/2015:16:40:30 +0100] "GET /Website/listTop5.jsp HTTP/1.1" 200 7086
0:0:0:0:0:0:0:1 - - [16/Jan/2015:16:40:30 +0100] "GET /Website/res/css/ourCss.css HTTP/1.1" 304 -
0:0:0:0:0:0:0:1 - - [16/Jan/2015:16:40:59 +0100] "GET /Website/login.jsp HTTP/1.1" 200 5639
0:0:0:0:0:0:0:1 - - [16/Jan/2015:16:41:03 +0100] "GET /Website/index.jsp HTTP/1.1" 200 4585
0:0:0:0:0:0:0:1 - - [16/Jan/2015:16:41:03 +0100] "GET /Website/res/css/ourCss.css HTTP/1.1" 304 -
0:0:0:0:0:0:0:1 - - [16/Jan/2015:16:41:12 +0100] "GET /Website/login.jsp HTTP/1.1" 200 5639
0:0:0:0:0:0:0:1 - - [16/Jan/2015:16:41:16 +0100] "GET /Website/listTop5.jsp HTTP/1.1" 200 7086
0:0:0:0:0:0:0:1 - - [16/Jan/2015:16:41:21 +0100] "GET /Website/listAlle.jsp HTTP/1.1" 200 11150
0:0:0:0:0:0:0:1 - - [16/Jan/2015:16:41:23 +0100] "GET /Website/listTop5.jsp HTTP/1.1" 200 7086
0:0:0:0:0:0:0:1 - - [16/Jan/2015:16:41:24 +0100] "GET /Website/listAlle.jsp HTTP/1.1" 200 11150
0:0:0:0:0:0:0:1 - - [16/Jan/2015:16:41:34 +0100] "GET /Website/listTop5.jsp HTTP/1.1" 200 7086
0:0:0:0:0:0:0:1 - - [16/Jan/2015:16:41:36 +0100] "GET /Website/listAlle.jsp HTTP/1.1" 200 11150
0:0:0:0:0:0:0:1 - - [16/Jan/2015:16:41:37 +0100] "GET /Website/login.jsp HTTP/1.1" 200 5639
0:0:0:0:0:0:0:1 - - [16/Jan/2015:16:41:38 +0100] "GET /Website/listTop5.jsp HTTP/1.1" 200 7086
0:0:0:0:0:0:0:1 - - [16/Jan/2015:16:41:38 +0100] "GET /Website/res/css/ourCss.css HTTP/1.1" 304 -
0:0:0:0:0:0:0:1 - - [16/Jan/2015:16:42:06 +0100] "GET /Website/index.jsp HTTP/1.1" 200 4585
